#!/usr/local/bin/rebench rebench.conf e:PIR-LLVM -S -df /builds/rirvm/rir_mirror/benchmarks.data --commit-id=81b48f0c6f9956ce65f780bc48b966de57e07ec5 --branch=master
# Execution Start: 2020-05-10T20:55:50
1	1	2947.833000	ms	total	superWhile	PIR-LLVM	simple_reduced	20000000	1		
1	2	2924.338000	ms	total	superWhile	PIR-LLVM	simple_reduced	20000000	1		
1	3	466.346000	ms	total	superWhile	PIR-LLVM	simple_reduced	20000000	1		
1	4	405.724000	ms	total	superWhile	PIR-LLVM	simple_reduced	20000000	1		
1	5	408.909000	ms	total	superWhile	PIR-LLVM	simple_reduced	20000000	1		
1	6	400.576000	ms	total	superWhile	PIR-LLVM	simple_reduced	20000000	1		
1	7	411.535000	ms	total	superWhile	PIR-LLVM	simple_reduced	20000000	1		
1	8	401.958000	ms	total	superWhile	PIR-LLVM	simple_reduced	20000000	1		
1	9	399.412000	ms	total	superWhile	PIR-LLVM	simple_reduced	20000000	1		
1	10	407.118000	ms	total	superWhile	PIR-LLVM	simple_reduced	20000000	1		
1	11	403.819000	ms	total	superWhile	PIR-LLVM	simple_reduced	20000000	1		
1	12	408.128000	ms	total	superWhile	PIR-LLVM	simple_reduced	20000000	1		
1	13	399.302000	ms	total	superWhile	PIR-LLVM	simple_reduced	20000000	1		
1	14	411.368000	ms	total	superWhile	PIR-LLVM	simple_reduced	20000000	1		
1	15	402.170000	ms	total	superWhile	PIR-LLVM	simple_reduced	20000000	1		
1	1	871.360000	ms	total	spectralnorm_naive	PIR-LLVM	shootout_reduced	150	1		
1	2	989.928000	ms	total	spectralnorm_naive	PIR-LLVM	shootout_reduced	150	1		
1	3	1146.876000	ms	total	spectralnorm_naive	PIR-LLVM	shootout_reduced	150	1		
1	4	38.610000	ms	total	spectralnorm_naive	PIR-LLVM	shootout_reduced	150	1		
1	5	38.606000	ms	total	spectralnorm_naive	PIR-LLVM	shootout_reduced	150	1		
1	6	38.665000	ms	total	spectralnorm_naive	PIR-LLVM	shootout_reduced	150	1		
1	7	38.621000	ms	total	spectralnorm_naive	PIR-LLVM	shootout_reduced	150	1		
1	8	38.564000	ms	total	spectralnorm_naive	PIR-LLVM	shootout_reduced	150	1		
1	9	38.636000	ms	total	spectralnorm_naive	PIR-LLVM	shootout_reduced	150	1		
1	10	38.653000	ms	total	spectralnorm_naive	PIR-LLVM	shootout_reduced	150	1		
1	11	38.668000	ms	total	spectralnorm_naive	PIR-LLVM	shootout_reduced	150	1		
1	12	38.685000	ms	total	spectralnorm_naive	PIR-LLVM	shootout_reduced	150	1		
1	13	38.655000	ms	total	spectralnorm_naive	PIR-LLVM	shootout_reduced	150	1		
1	14	38.890000	ms	total	spectralnorm_naive	PIR-LLVM	shootout_reduced	150	1		
1	15	38.746000	ms	total	spectralnorm_naive	PIR-LLVM	shootout_reduced	150	1		
1	1	1136.797000	ms	total	fasta_2	PIR-LLVM	shootout_reduced	60000	1		
1	2	1554.537000	ms	total	fasta_2	PIR-LLVM	shootout_reduced	60000	1		
1	3	2306.447000	ms	total	fasta_2	PIR-LLVM	shootout_reduced	60000	1		
1	4	879.806000	ms	total	fasta_2	PIR-LLVM	shootout_reduced	60000	1		
1	5	870.638000	ms	total	fasta_2	PIR-LLVM	shootout_reduced	60000	1		
1	6	860.810000	ms	total	fasta_2	PIR-LLVM	shootout_reduced	60000	1		
1	7	876.704000	ms	total	fasta_2	PIR-LLVM	shootout_reduced	60000	1		
1	8	874.487000	ms	total	fasta_2	PIR-LLVM	shootout_reduced	60000	1		
1	9	881.610000	ms	total	fasta_2	PIR-LLVM	shootout_reduced	60000	1		
1	10	878.671000	ms	total	fasta_2	PIR-LLVM	shootout_reduced	60000	1		
1	11	884.378000	ms	total	fasta_2	PIR-LLVM	shootout_reduced	60000	1		
1	12	861.138000	ms	total	fasta_2	PIR-LLVM	shootout_reduced	60000	1		
1	13	860.245000	ms	total	fasta_2	PIR-LLVM	shootout_reduced	60000	1		
1	14	865.045000	ms	total	fasta_2	PIR-LLVM	shootout_reduced	60000	1		
1	15	872.588000	ms	total	fasta_2	PIR-LLVM	shootout_reduced	60000	1		
1	1	2029.844000	ms	total	nbody_3	PIR-LLVM	shootout_reduced	20000	1		
1	2	2018.360000	ms	total	nbody_3	PIR-LLVM	shootout_reduced	20000	1		
1	3	1903.469000	ms	total	nbody_3	PIR-LLVM	shootout_reduced	20000	1		
1	4	1064.668000	ms	total	nbody_3	PIR-LLVM	shootout_reduced	20000	1		
1	5	1072.750000	ms	total	nbody_3	PIR-LLVM	shootout_reduced	20000	1		
1	6	1063.594000	ms	total	nbody_3	PIR-LLVM	shootout_reduced	20000	1		
1	7	1074.079000	ms	total	nbody_3	PIR-LLVM	shootout_reduced	20000	1		
1	8	1064.130000	ms	total	nbody_3	PIR-LLVM	shootout_reduced	20000	1		
1	9	1078.000000	ms	total	nbody_3	PIR-LLVM	shootout_reduced	20000	1		
1	10	1065.093000	ms	total	nbody_3	PIR-LLVM	shootout_reduced	20000	1		
1	11	1062.252000	ms	total	nbody_3	PIR-LLVM	shootout_reduced	20000	1		
1	12	1076.204000	ms	total	nbody_3	PIR-LLVM	shootout_reduced	20000	1		
1	13	1062.626000	ms	total	nbody_3	PIR-LLVM	shootout_reduced	20000	1		
1	14	1072.749000	ms	total	nbody_3	PIR-LLVM	shootout_reduced	20000	1		
1	15	1066.334000	ms	total	nbody_3	PIR-LLVM	shootout_reduced	20000	1		
1	1	566.415000	ms	total	reversecomplement	PIR-LLVM	shootout_reduced	150000	1		
1	2	594.679000	ms	total	reversecomplement	PIR-LLVM	shootout_reduced	150000	1		
1	3	1114.919000	ms	total	reversecomplement	PIR-LLVM	shootout_reduced	150000	1		
1	4	440.097000	ms	total	reversecomplement	PIR-LLVM	shootout_reduced	150000	1		
1	5	450.206000	ms	total	reversecomplement	PIR-LLVM	shootout_reduced	150000	1		
1	6	443.624000	ms	total	reversecomplement	PIR-LLVM	shootout_reduced	150000	1		
1	7	461.171000	ms	total	reversecomplement	PIR-LLVM	shootout_reduced	150000	1		
1	8	444.897000	ms	total	reversecomplement	PIR-LLVM	shootout_reduced	150000	1		
1	9	449.145000	ms	total	reversecomplement	PIR-LLVM	shootout_reduced	150000	1		
1	10	447.012000	ms	total	reversecomplement	PIR-LLVM	shootout_reduced	150000	1		
1	11	482.945000	ms	total	reversecomplement	PIR-LLVM	shootout_reduced	150000	1		
1	12	468.159000	ms	total	reversecomplement	PIR-LLVM	shootout_reduced	150000	1		
1	13	444.566000	ms	total	reversecomplement	PIR-LLVM	shootout_reduced	150000	1		
1	14	448.259000	ms	total	reversecomplement	PIR-LLVM	shootout_reduced	150000	1		
1	15	450.001000	ms	total	reversecomplement	PIR-LLVM	shootout_reduced	150000	1		
1	1	598.448000	ms	total	mandelbrot_naive_ascii	PIR-LLVM	shootout_reduced	200	1		
1	2	602.459000	ms	total	mandelbrot_naive_ascii	PIR-LLVM	shootout_reduced	200	1		
1	3	999.778000	ms	total	mandelbrot_naive_ascii	PIR-LLVM	shootout_reduced	200	1		
1	4	200.739000	ms	total	mandelbrot_naive_ascii	PIR-LLVM	shootout_reduced	200	1		
1	5	196.558000	ms	total	mandelbrot_naive_ascii	PIR-LLVM	shootout_reduced	200	1		
1	6	195.513000	ms	total	mandelbrot_naive_ascii	PIR-LLVM	shootout_reduced	200	1		
1	7	195.902000	ms	total	mandelbrot_naive_ascii	PIR-LLVM	shootout_reduced	200	1		
1	8	196.075000	ms	total	mandelbrot_naive_ascii	PIR-LLVM	shootout_reduced	200	1		
1	9	196.838000	ms	total	mandelbrot_naive_ascii	PIR-LLVM	shootout_reduced	200	1		
1	10	195.610000	ms	total	mandelbrot_naive_ascii	PIR-LLVM	shootout_reduced	200	1		
1	11	200.181000	ms	total	mandelbrot_naive_ascii	PIR-LLVM	shootout_reduced	200	1		
1	12	197.345000	ms	total	mandelbrot_naive_ascii	PIR-LLVM	shootout_reduced	200	1		
1	13	195.580000	ms	total	mandelbrot_naive_ascii	PIR-LLVM	shootout_reduced	200	1		
1	14	195.970000	ms	total	mandelbrot_naive_ascii	PIR-LLVM	shootout_reduced	200	1		
1	15	195.848000	ms	total	mandelbrot_naive_ascii	PIR-LLVM	shootout_reduced	200	1		
1	1	1863.657000	ms	total	nbody	PIR-LLVM	shootout_reduced	25000	1		
1	2	1974.833000	ms	total	nbody	PIR-LLVM	shootout_reduced	25000	1		
1	3	2056.876000	ms	total	nbody	PIR-LLVM	shootout_reduced	25000	1		
1	4	767.266000	ms	total	nbody	PIR-LLVM	shootout_reduced	25000	1		
1	5	740.521000	ms	total	nbody	PIR-LLVM	shootout_reduced	25000	1		
1	6	741.836000	ms	total	nbody	PIR-LLVM	shootout_reduced	25000	1		
1	7	740.712000	ms	total	nbody	PIR-LLVM	shootout_reduced	25000	1		
1	8	756.891000	ms	total	nbody	PIR-LLVM	shootout_reduced	25000	1		
1	9	738.337000	ms	total	nbody	PIR-LLVM	shootout_reduced	25000	1		
1	10	749.387000	ms	total	nbody	PIR-LLVM	shootout_reduced	25000	1		
1	11	741.117000	ms	total	nbody	PIR-LLVM	shootout_reduced	25000	1		
1	12	753.830000	ms	total	nbody	PIR-LLVM	shootout_reduced	25000	1		
1	13	739.439000	ms	total	nbody	PIR-LLVM	shootout_reduced	25000	1		
1	14	740.452000	ms	total	nbody	PIR-LLVM	shootout_reduced	25000	1		
1	15	740.760000	ms	total	nbody	PIR-LLVM	shootout_reduced	25000	1		
1	1	702.503000	ms	total	fastaredux	PIR-LLVM	shootout_reduced	80000	1		
1	2	1709.907000	ms	total	fastaredux	PIR-LLVM	shootout_reduced	80000	1		
1	3	2409.123000	ms	total	fastaredux	PIR-LLVM	shootout_reduced	80000	1		
1	4	382.722000	ms	total	fastaredux	PIR-LLVM	shootout_reduced	80000	1		
1	5	388.021000	ms	total	fastaredux	PIR-LLVM	shootout_reduced	80000	1		
1	6	371.710000	ms	total	fastaredux	PIR-LLVM	shootout_reduced	80000	1		
1	7	376.059000	ms	total	fastaredux	PIR-LLVM	shootout_reduced	80000	1		
1	8	376.419000	ms	total	fastaredux	PIR-LLVM	shootout_reduced	80000	1		
1	9	385.009000	ms	total	fastaredux	PIR-LLVM	shootout_reduced	80000	1		
1	10	381.858000	ms	total	fastaredux	PIR-LLVM	shootout_reduced	80000	1		
1	11	388.727000	ms	total	fastaredux	PIR-LLVM	shootout_reduced	80000	1		
1	12	384.036000	ms	total	fastaredux	PIR-LLVM	shootout_reduced	80000	1		
1	13	381.667000	ms	total	fastaredux	PIR-LLVM	shootout_reduced	80000	1		
1	14	383.140000	ms	total	fastaredux	PIR-LLVM	shootout_reduced	80000	1		
1	15	390.662000	ms	total	fastaredux	PIR-LLVM	shootout_reduced	80000	1		
1	1	4475.489000	ms	total	knucleotide_brute_3	PIR-LLVM	shootout_reduced	2000	1		
1	2	4207.799000	ms	total	knucleotide_brute_3	PIR-LLVM	shootout_reduced	2000	1		
1	3	9512.247000	ms	total	knucleotide_brute_3	PIR-LLVM	shootout_reduced	2000	1		
1	4	2750.420000	ms	total	knucleotide_brute_3	PIR-LLVM	shootout_reduced	2000	1		
1	5	2759.291000	ms	total	knucleotide_brute_3	PIR-LLVM	shootout_reduced	2000	1		
1	6	2748.812000	ms	total	knucleotide_brute_3	PIR-LLVM	shootout_reduced	2000	1		
1	7	2753.659000	ms	total	knucleotide_brute_3	PIR-LLVM	shootout_reduced	2000	1		
1	8	2743.037000	ms	total	knucleotide_brute_3	PIR-LLVM	shootout_reduced	2000	1		
1	9	2766.445000	ms	total	knucleotide_brute_3	PIR-LLVM	shootout_reduced	2000	1		
1	10	2739.363000	ms	total	knucleotide_brute_3	PIR-LLVM	shootout_reduced	2000	1		
1	11	2750.903000	ms	total	knucleotide_brute_3	PIR-LLVM	shootout_reduced	2000	1		
1	12	2745.480000	ms	total	knucleotide_brute_3	PIR-LLVM	shootout_reduced	2000	1		
1	13	2745.064000	ms	total	knucleotide_brute_3	PIR-LLVM	shootout_reduced	2000	1		
1	14	2742.855000	ms	total	knucleotide_brute_3	PIR-LLVM	shootout_reduced	2000	1		
1	15	2744.155000	ms	total	knucleotide_brute_3	PIR-LLVM	shootout_reduced	2000	1		
1	1	980.552000	ms	total	fasta_naive_2	PIR-LLVM	shootout_reduced	80000	1		
1	2	1242.432000	ms	total	fasta_naive_2	PIR-LLVM	shootout_reduced	80000	1		
1	3	2393.399000	ms	total	fasta_naive_2	PIR-LLVM	shootout_reduced	80000	1		
1	4	635.856000	ms	total	fasta_naive_2	PIR-LLVM	shootout_reduced	80000	1		
1	5	629.116000	ms	total	fasta_naive_2	PIR-LLVM	shootout_reduced	80000	1		
1	6	647.466000	ms	total	fasta_naive_2	PIR-LLVM	shootout_reduced	80000	1		
1	7	634.257000	ms	total	fasta_naive_2	PIR-LLVM	shootout_reduced	80000	1		
1	8	631.089000	ms	total	fasta_naive_2	PIR-LLVM	shootout_reduced	80000	1		
1	9	662.817000	ms	total	fasta_naive_2	PIR-LLVM	shootout_reduced	80000	1		
1	10	619.039000	ms	total	fasta_naive_2	PIR-LLVM	shootout_reduced	80000	1		
1	11	631.431000	ms	total	fasta_naive_2	PIR-LLVM	shootout_reduced	80000	1		
1	12	650.742000	ms	total	fasta_naive_2	PIR-LLVM	shootout_reduced	80000	1		
1	13	616.400000	ms	total	fasta_naive_2	PIR-LLVM	shootout_reduced	80000	1		
1	14	626.840000	ms	total	fasta_naive_2	PIR-LLVM	shootout_reduced	80000	1		
1	15	654.626000	ms	total	fasta_naive_2	PIR-LLVM	shootout_reduced	80000	1		
1	1	17055.481000	ms	total	flexclust_no_s4	PIR-LLVM	real_thing_extra	5	1		
1	2	13314.120000	ms	total	flexclust_no_s4	PIR-LLVM	real_thing_extra	5	1		
1	3	24822.806000	ms	total	flexclust_no_s4	PIR-LLVM	real_thing_extra	5	1		
1	4	24553.070000	ms	total	flexclust_no_s4	PIR-LLVM	real_thing_extra	5	1		
1	5	12829.673000	ms	total	flexclust_no_s4	PIR-LLVM	real_thing_extra	5	1		
1	6	12939.161000	ms	total	flexclust_no_s4	PIR-LLVM	real_thing_extra	5	1		
1	7	12843.163000	ms	total	flexclust_no_s4	PIR-LLVM	real_thing_extra	5	1		
1	8	12936.511000	ms	total	flexclust_no_s4	PIR-LLVM	real_thing_extra	5	1		
1	9	12817.216000	ms	total	flexclust_no_s4	PIR-LLVM	real_thing_extra	5	1		
1	10	12839.205000	ms	total	flexclust_no_s4	PIR-LLVM	real_thing_extra	5	1		
1	11	13003.942000	ms	total	flexclust_no_s4	PIR-LLVM	real_thing_extra	5	1		
1	12	12747.767000	ms	total	flexclust_no_s4	PIR-LLVM	real_thing_extra	5	1		
1	13	12804.742000	ms	total	flexclust_no_s4	PIR-LLVM	real_thing_extra	5	1		
1	14	12806.894000	ms	total	flexclust_no_s4	PIR-LLVM	real_thing_extra	5	1		
1	15	12790.913000	ms	total	flexclust_no_s4	PIR-LLVM	real_thing_extra	5	1		
1	1	3286.240000	ms	total	Mandelbrot	PIR-LLVM	are-we-fast-r	500	1		
1	2	3223.144000	ms	total	Mandelbrot	PIR-LLVM	are-we-fast-r	500	1		
1	3	801.713000	ms	total	Mandelbrot	PIR-LLVM	are-we-fast-r	500	1		
1	4	873.373000	ms	total	Mandelbrot	PIR-LLVM	are-we-fast-r	500	1		
1	5	65.046000	ms	total	Mandelbrot	PIR-LLVM	are-we-fast-r	500	1		
1	6	65.022000	ms	total	Mandelbrot	PIR-LLVM	are-we-fast-r	500	1		
1	7	64.987000	ms	total	Mandelbrot	PIR-LLVM	are-we-fast-r	500	1		
1	8	64.873000	ms	total	Mandelbrot	PIR-LLVM	are-we-fast-r	500	1		
1	9	64.860000	ms	total	Mandelbrot	PIR-LLVM	are-we-fast-r	500	1		
1	10	64.991000	ms	total	Mandelbrot	PIR-LLVM	are-we-fast-r	500	1		
1	11	64.874000	ms	total	Mandelbrot	PIR-LLVM	are-we-fast-r	500	1		
1	12	64.986000	ms	total	Mandelbrot	PIR-LLVM	are-we-fast-r	500	1		
1	13	65.959000	ms	total	Mandelbrot	PIR-LLVM	are-we-fast-r	500	1		
1	14	65.035000	ms	total	Mandelbrot	PIR-LLVM	are-we-fast-r	500	1		
1	15	64.995000	ms	total	Mandelbrot	PIR-LLVM	are-we-fast-r	500	1		
1	1	2258.637000	ms	total	fannkuchredux	PIR-LLVM	shootout_reduced	9	1		
1	2	2194.777000	ms	total	fannkuchredux	PIR-LLVM	shootout_reduced	9	1		
1	3	3940.494000	ms	total	fannkuchredux	PIR-LLVM	shootout_reduced	9	1		
1	4	913.901000	ms	total	fannkuchredux	PIR-LLVM	shootout_reduced	9	1		
1	5	931.194000	ms	total	fannkuchredux	PIR-LLVM	shootout_reduced	9	1		
1	6	913.754000	ms	total	fannkuchredux	PIR-LLVM	shootout_reduced	9	1		
1	7	915.403000	ms	total	fannkuchredux	PIR-LLVM	shootout_reduced	9	1		
1	8	929.889000	ms	total	fannkuchredux	PIR-LLVM	shootout_reduced	9	1		
1	9	915.102000	ms	total	fannkuchredux	PIR-LLVM	shootout_reduced	9	1		
1	10	939.532000	ms	total	fannkuchredux	PIR-LLVM	shootout_reduced	9	1		
1	11	917.841000	ms	total	fannkuchredux	PIR-LLVM	shootout_reduced	9	1		
1	12	924.341000	ms	total	fannkuchredux	PIR-LLVM	shootout_reduced	9	1		
1	13	917.340000	ms	total	fannkuchredux	PIR-LLVM	shootout_reduced	9	1		
1	14	929.948000	ms	total	fannkuchredux	PIR-LLVM	shootout_reduced	9	1		
1	15	912.688000	ms	total	fannkuchredux	PIR-LLVM	shootout_reduced	9	1		
1	1	2622.326000	ms	total	spectralnorm	PIR-LLVM	shootout_reduced	1200	1		
1	2	2808.861000	ms	total	spectralnorm	PIR-LLVM	shootout_reduced	1200	1		
1	3	2561.571000	ms	total	spectralnorm	PIR-LLVM	shootout_reduced	1200	1		
1	4	70.696000	ms	total	spectralnorm	PIR-LLVM	shootout_reduced	1200	1		
1	5	59.656000	ms	total	spectralnorm	PIR-LLVM	shootout_reduced	1200	1		
1	6	61.978000	ms	total	spectralnorm	PIR-LLVM	shootout_reduced	1200	1		
1	7	60.638000	ms	total	spectralnorm	PIR-LLVM	shootout_reduced	1200	1		
1	8	60.740000	ms	total	spectralnorm	PIR-LLVM	shootout_reduced	1200	1		
1	9	59.415000	ms	total	spectralnorm	PIR-LLVM	shootout_reduced	1200	1		
1	10	60.763000	ms	total	spectralnorm	PIR-LLVM	shootout_reduced	1200	1		
1	11	60.552000	ms	total	spectralnorm	PIR-LLVM	shootout_reduced	1200	1		
1	12	60.744000	ms	total	spectralnorm	PIR-LLVM	shootout_reduced	1200	1		
1	13	59.245000	ms	total	spectralnorm	PIR-LLVM	shootout_reduced	1200	1		
1	14	60.595000	ms	total	spectralnorm	PIR-LLVM	shootout_reduced	1200	1		
1	15	60.620000	ms	total	spectralnorm	PIR-LLVM	shootout_reduced	1200	1		
1	1	31657.208000	ms	total	pidigits	PIR-LLVM	shootout_reduced	30	1		
1	2	104.802000	ms	total	pidigits	PIR-LLVM	shootout_reduced	30	1		
1	3	61795.098000	ms	total	pidigits	PIR-LLVM	shootout_reduced	30	1		
1	4	103.996000	ms	total	pidigits	PIR-LLVM	shootout_reduced	30	1		
1	5	115.289000	ms	total	pidigits	PIR-LLVM	shootout_reduced	30	1		
1	6	103.670000	ms	total	pidigits	PIR-LLVM	shootout_reduced	30	1		
1	7	104.371000	ms	total	pidigits	PIR-LLVM	shootout_reduced	30	1		
1	8	103.520000	ms	total	pidigits	PIR-LLVM	shootout_reduced	30	1		
1	9	104.510000	ms	total	pidigits	PIR-LLVM	shootout_reduced	30	1		
1	10	106.197000	ms	total	pidigits	PIR-LLVM	shootout_reduced	30	1		
1	11	104.086000	ms	total	pidigits	PIR-LLVM	shootout_reduced	30	1		
1	12	103.323000	ms	total	pidigits	PIR-LLVM	shootout_reduced	30	1		
1	13	104.140000	ms	total	pidigits	PIR-LLVM	shootout_reduced	30	1		
1	14	103.486000	ms	total	pidigits	PIR-LLVM	shootout_reduced	30	1		
1	15	104.638000	ms	total	pidigits	PIR-LLVM	shootout_reduced	30	1		
1	1	2003.397000	ms	total	Bounce_nonames_simple	PIR-LLVM	are-we-fast-r	35	1		
1	2	131.052000	ms	total	Bounce_nonames_simple	PIR-LLVM	are-we-fast-r	35	1		
1	3	131.353000	ms	total	Bounce_nonames_simple	PIR-LLVM	are-we-fast-r	35	1		
1	4	140.477000	ms	total	Bounce_nonames_simple	PIR-LLVM	are-we-fast-r	35	1		
1	5	130.859000	ms	total	Bounce_nonames_simple	PIR-LLVM	are-we-fast-r	35	1		
1	6	131.353000	ms	total	Bounce_nonames_simple	PIR-LLVM	are-we-fast-r	35	1		
1	7	134.051000	ms	total	Bounce_nonames_simple	PIR-LLVM	are-we-fast-r	35	1		
1	8	130.658000	ms	total	Bounce_nonames_simple	PIR-LLVM	are-we-fast-r	35	1		
1	9	130.610000	ms	total	Bounce_nonames_simple	PIR-LLVM	are-we-fast-r	35	1		
1	10	130.947000	ms	total	Bounce_nonames_simple	PIR-LLVM	are-we-fast-r	35	1		
1	11	130.750000	ms	total	Bounce_nonames_simple	PIR-LLVM	are-we-fast-r	35	1		
1	12	131.321000	ms	total	Bounce_nonames_simple	PIR-LLVM	are-we-fast-r	35	1		
1	13	130.971000	ms	total	Bounce_nonames_simple	PIR-LLVM	are-we-fast-r	35	1		
1	14	133.998000	ms	total	Bounce_nonames_simple	PIR-LLVM	are-we-fast-r	35	1		
1	15	130.167000	ms	total	Bounce_nonames_simple	PIR-LLVM	are-we-fast-r	35	1		
1	1	21156.931000	ms	total	nbody_naive	PIR-LLVM	shootout_reduced	20000	1		
1	2	1333.059000	ms	total	nbody_naive	PIR-LLVM	shootout_reduced	20000	1		
1	3	21512.463000	ms	total	nbody_naive	PIR-LLVM	shootout_reduced	20000	1		
1	4	149.821000	ms	total	nbody_naive	PIR-LLVM	shootout_reduced	20000	1		
1	5	154.677000	ms	total	nbody_naive	PIR-LLVM	shootout_reduced	20000	1		
1	6	151.047000	ms	total	nbody_naive	PIR-LLVM	shootout_reduced	20000	1		
1	7	150.612000	ms	total	nbody_naive	PIR-LLVM	shootout_reduced	20000	1		
1	8	147.850000	ms	total	nbody_naive	PIR-LLVM	shootout_reduced	20000	1		
1	9	146.805000	ms	total	nbody_naive	PIR-LLVM	shootout_reduced	20000	1		
1	10	153.688000	ms	total	nbody_naive	PIR-LLVM	shootout_reduced	20000	1		
1	11	151.453000	ms	total	nbody_naive	PIR-LLVM	shootout_reduced	20000	1		
1	12	148.944000	ms	total	nbody_naive	PIR-LLVM	shootout_reduced	20000	1		
1	13	147.716000	ms	total	nbody_naive	PIR-LLVM	shootout_reduced	20000	1		
1	14	147.231000	ms	total	nbody_naive	PIR-LLVM	shootout_reduced	20000	1		
1	15	164.611000	ms	total	nbody_naive	PIR-LLVM	shootout_reduced	20000	1		
1	1	941.052000	ms	total	binarytrees	PIR-LLVM	shootout_reduced	9	1		
1	2	78.389000	ms	total	binarytrees	PIR-LLVM	shootout_reduced	9	1		
1	3	1090.424000	ms	total	binarytrees	PIR-LLVM	shootout_reduced	9	1		
1	4	78.012000	ms	total	binarytrees	PIR-LLVM	shootout_reduced	9	1		
1	5	78.047000	ms	total	binarytrees	PIR-LLVM	shootout_reduced	9	1		
1	6	88.627000	ms	total	binarytrees	PIR-LLVM	shootout_reduced	9	1		
1	7	78.117000	ms	total	binarytrees	PIR-LLVM	shootout_reduced	9	1		
1	8	79.094000	ms	total	binarytrees	PIR-LLVM	shootout_reduced	9	1		
1	9	78.582000	ms	total	binarytrees	PIR-LLVM	shootout_reduced	9	1		
1	10	78.454000	ms	total	binarytrees	PIR-LLVM	shootout_reduced	9	1		
1	11	81.169000	ms	total	binarytrees	PIR-LLVM	shootout_reduced	9	1		
1	12	78.491000	ms	total	binarytrees	PIR-LLVM	shootout_reduced	9	1		
1	13	78.608000	ms	total	binarytrees	PIR-LLVM	shootout_reduced	9	1		
1	14	78.723000	ms	total	binarytrees	PIR-LLVM	shootout_reduced	9	1		
1	15	78.576000	ms	total	binarytrees	PIR-LLVM	shootout_reduced	9	1		
1	1	1214.862000	ms	total	Storage	PIR-LLVM	are-we-fast-r	100	1		
1	2	524.249000	ms	total	Storage	PIR-LLVM	are-we-fast-r	100	1		
1	3	530.262000	ms	total	Storage	PIR-LLVM	are-we-fast-r	100	1		
1	4	553.434000	ms	total	Storage	PIR-LLVM	are-we-fast-r	100	1		
1	5	536.953000	ms	total	Storage	PIR-LLVM	are-we-fast-r	100	1		
1	6	518.694000	ms	total	Storage	PIR-LLVM	are-we-fast-r	100	1		
1	7	515.831000	ms	total	Storage	PIR-LLVM	are-we-fast-r	100	1		
1	8	525.512000	ms	total	Storage	PIR-LLVM	are-we-fast-r	100	1		
1	9	529.212000	ms	total	Storage	PIR-LLVM	are-we-fast-r	100	1		
1	10	538.522000	ms	total	Storage	PIR-LLVM	are-we-fast-r	100	1		
1	11	525.897000	ms	total	Storage	PIR-LLVM	are-we-fast-r	100	1		
1	12	520.078000	ms	total	Storage	PIR-LLVM	are-we-fast-r	100	1		
1	13	518.577000	ms	total	Storage	PIR-LLVM	are-we-fast-r	100	1		
1	14	528.060000	ms	total	Storage	PIR-LLVM	are-we-fast-r	100	1		
1	15	545.095000	ms	total	Storage	PIR-LLVM	are-we-fast-r	100	1		
1	1	365.543000	ms	total	matrixFor	PIR-LLVM	simple_reduced	2000	1		
1	2	371.690000	ms	total	matrixFor	PIR-LLVM	simple_reduced	2000	1		
1	3	183.227000	ms	total	matrixFor	PIR-LLVM	simple_reduced	2000	1		
1	4	68.495000	ms	total	matrixFor	PIR-LLVM	simple_reduced	2000	1		
1	5	70.274000	ms	total	matrixFor	PIR-LLVM	simple_reduced	2000	1		
1	6	66.584000	ms	total	matrixFor	PIR-LLVM	simple_reduced	2000	1		
1	7	66.337000	ms	total	matrixFor	PIR-LLVM	simple_reduced	2000	1		
1	8	66.588000	ms	total	matrixFor	PIR-LLVM	simple_reduced	2000	1		
1	9	66.384000	ms	total	matrixFor	PIR-LLVM	simple_reduced	2000	1		
1	10	66.560000	ms	total	matrixFor	PIR-LLVM	simple_reduced	2000	1		
1	11	66.396000	ms	total	matrixFor	PIR-LLVM	simple_reduced	2000	1		
1	12	66.589000	ms	total	matrixFor	PIR-LLVM	simple_reduced	2000	1		
1	13	66.352000	ms	total	matrixFor	PIR-LLVM	simple_reduced	2000	1		
1	14	66.561000	ms	total	matrixFor	PIR-LLVM	simple_reduced	2000	1		
1	15	66.425000	ms	total	matrixFor	PIR-LLVM	simple_reduced	2000	1		
1	1	1989.577000	ms	total	vectorWhile	PIR-LLVM	simple_reduced	20000000	1		
1	2	1976.967000	ms	total	vectorWhile	PIR-LLVM	simple_reduced	20000000	1		
1	3	758.421000	ms	total	vectorWhile	PIR-LLVM	simple_reduced	20000000	1		
1	4	663.795000	ms	total	vectorWhile	PIR-LLVM	simple_reduced	20000000	1		
1	5	668.635000	ms	total	vectorWhile	PIR-LLVM	simple_reduced	20000000	1		
1	6	664.648000	ms	total	vectorWhile	PIR-LLVM	simple_reduced	20000000	1		
1	7	663.337000	ms	total	vectorWhile	PIR-LLVM	simple_reduced	20000000	1		
1	8	651.414000	ms	total	vectorWhile	PIR-LLVM	simple_reduced	20000000	1		
1	9	676.585000	ms	total	vectorWhile	PIR-LLVM	simple_reduced	20000000	1		
1	10	664.635000	ms	total	vectorWhile	PIR-LLVM	simple_reduced	20000000	1		
1	11	665.149000	ms	total	vectorWhile	PIR-LLVM	simple_reduced	20000000	1		
1	12	667.193000	ms	total	vectorWhile	PIR-LLVM	simple_reduced	20000000	1		
1	13	664.753000	ms	total	vectorWhile	PIR-LLVM	simple_reduced	20000000	1		
1	14	664.670000	ms	total	vectorWhile	PIR-LLVM	simple_reduced	20000000	1		
1	15	651.546000	ms	total	vectorWhile	PIR-LLVM	simple_reduced	20000000	1		
1	1	744.945000	ms	total	convolution	PIR-LLVM	real_thing_reduced	500	1		
1	2	15.772000	ms	total	convolution	PIR-LLVM	real_thing_reduced	500	1		
1	3	418.030000	ms	total	convolution	PIR-LLVM	real_thing_reduced	500	1		
1	4	12.367000	ms	total	convolution	PIR-LLVM	real_thing_reduced	500	1		
1	5	12.341000	ms	total	convolution	PIR-LLVM	real_thing_reduced	500	1		
1	6	12.346000	ms	total	convolution	PIR-LLVM	real_thing_reduced	500	1		
1	7	12.341000	ms	total	convolution	PIR-LLVM	real_thing_reduced	500	1		
1	8	12.347000	ms	total	convolution	PIR-LLVM	real_thing_reduced	500	1		
1	9	12.343000	ms	total	convolution	PIR-LLVM	real_thing_reduced	500	1		
1	10	12.347000	ms	total	convolution	PIR-LLVM	real_thing_reduced	500	1		
1	11	12.343000	ms	total	convolution	PIR-LLVM	real_thing_reduced	500	1		
1	12	12.339000	ms	total	convolution	PIR-LLVM	real_thing_reduced	500	1		
1	13	12.351000	ms	total	convolution	PIR-LLVM	real_thing_reduced	500	1		
1	14	12.350000	ms	total	convolution	PIR-LLVM	real_thing_reduced	500	1		
1	15	12.352000	ms	total	convolution	PIR-LLVM	real_thing_reduced	500	1		
1	1	3591.293000	ms	total	knucleotide_brute_2	PIR-LLVM	shootout_reduced	2000	1		
1	2	4332.125000	ms	total	knucleotide_brute_2	PIR-LLVM	shootout_reduced	2000	1		
1	3	10515.475000	ms	total	knucleotide_brute_2	PIR-LLVM	shootout_reduced	2000	1		
1	4	3292.304000	ms	total	knucleotide_brute_2	PIR-LLVM	shootout_reduced	2000	1		
1	5	2600.118000	ms	total	knucleotide_brute_2	PIR-LLVM	shootout_reduced	2000	1		
1	6	2923.080000	ms	total	knucleotide_brute_2	PIR-LLVM	shootout_reduced	2000	1		
1	7	3412.572000	ms	total	knucleotide_brute_2	PIR-LLVM	shootout_reduced	2000	1		
1	8	3020.349000	ms	total	knucleotide_brute_2	PIR-LLVM	shootout_reduced	2000	1		
1	9	4169.343000	ms	total	knucleotide_brute_2	PIR-LLVM	shootout_reduced	2000	1		
1	10	3454.328000	ms	total	knucleotide_brute_2	PIR-LLVM	shootout_reduced	2000	1		
1	11	2063.557000	ms	total	knucleotide_brute_2	PIR-LLVM	shootout_reduced	2000	1		
1	12	2090.218000	ms	total	knucleotide_brute_2	PIR-LLVM	shootout_reduced	2000	1		
1	13	2337.912000	ms	total	knucleotide_brute_2	PIR-LLVM	shootout_reduced	2000	1		
1	14	3218.575000	ms	total	knucleotide_brute_2	PIR-LLVM	shootout_reduced	2000	1		
1	15	2387.740000	ms	total	knucleotide_brute_2	PIR-LLVM	shootout_reduced	2000	1		
1	1	1130.460000	ms	total	binarytrees_2	PIR-LLVM	shootout_reduced	9	1		
1	2	153.761000	ms	total	binarytrees_2	PIR-LLVM	shootout_reduced	9	1		
1	3	1030.827000	ms	total	binarytrees_2	PIR-LLVM	shootout_reduced	9	1		
1	4	93.125000	ms	total	binarytrees_2	PIR-LLVM	shootout_reduced	9	1		
1	5	103.087000	ms	total	binarytrees_2	PIR-LLVM	shootout_reduced	9	1		
1	6	92.684000	ms	total	binarytrees_2	PIR-LLVM	shootout_reduced	9	1		
1	7	93.022000	ms	total	binarytrees_2	PIR-LLVM	shootout_reduced	9	1		
1	8	93.061000	ms	total	binarytrees_2	PIR-LLVM	shootout_reduced	9	1		
1	9	95.931000	ms	total	binarytrees_2	PIR-LLVM	shootout_reduced	9	1		
1	10	93.254000	ms	total	binarytrees_2	PIR-LLVM	shootout_reduced	9	1		
1	11	92.476000	ms	total	binarytrees_2	PIR-LLVM	shootout_reduced	9	1		
1	12	93.308000	ms	total	binarytrees_2	PIR-LLVM	shootout_reduced	9	1		
1	13	92.680000	ms	total	binarytrees_2	PIR-LLVM	shootout_reduced	9	1		
1	14	93.710000	ms	total	binarytrees_2	PIR-LLVM	shootout_reduced	9	1		
1	15	94.240000	ms	total	binarytrees_2	PIR-LLVM	shootout_reduced	9	1		
1	1	3132.338000	ms	total	emptyFor	PIR-LLVM	simple_reduced	100000000	1		
1	2	3060.019000	ms	total	emptyFor	PIR-LLVM	simple_reduced	100000000	1		
1	3	19.191000	ms	total	emptyFor	PIR-LLVM	simple_reduced	100000000	1		
1	4	0.028000	ms	total	emptyFor	PIR-LLVM	simple_reduced	100000000	1		
1	5	0.010000	ms	total	emptyFor	PIR-LLVM	simple_reduced	100000000	1		
1	6	0.008000	ms	total	emptyFor	PIR-LLVM	simple_reduced	100000000	1		
1	7	0.008000	ms	total	emptyFor	PIR-LLVM	simple_reduced	100000000	1		
1	8	0.008000	ms	total	emptyFor	PIR-LLVM	simple_reduced	100000000	1		
1	9	0.008000	ms	total	emptyFor	PIR-LLVM	simple_reduced	100000000	1		
1	10	0.008000	ms	total	emptyFor	PIR-LLVM	simple_reduced	100000000	1		
1	11	0.007000	ms	total	emptyFor	PIR-LLVM	simple_reduced	100000000	1		
1	12	0.008000	ms	total	emptyFor	PIR-LLVM	simple_reduced	100000000	1		
1	13	0.007000	ms	total	emptyFor	PIR-LLVM	simple_reduced	100000000	1		
1	14	0.008000	ms	total	emptyFor	PIR-LLVM	simple_reduced	100000000	1		
1	15	0.008000	ms	total	emptyFor	PIR-LLVM	simple_reduced	100000000	1		
1	1	754.945000	ms	total	lapplyDots	PIR-LLVM	simple_reduced	1000000	1		
1	2	881.537000	ms	total	lapplyDots	PIR-LLVM	simple_reduced	1000000	1		
1	3	801.111000	ms	total	lapplyDots	PIR-LLVM	simple_reduced	1000000	1		
1	4	1050.469000	ms	total	lapplyDots	PIR-LLVM	simple_reduced	1000000	1		
1	5	965.747000	ms	total	lapplyDots	PIR-LLVM	simple_reduced	1000000	1		
1	6	909.648000	ms	total	lapplyDots	PIR-LLVM	simple_reduced	1000000	1		
1	7	929.128000	ms	total	lapplyDots	PIR-LLVM	simple_reduced	1000000	1		
1	8	803.039000	ms	total	lapplyDots	PIR-LLVM	simple_reduced	1000000	1		
1	9	911.182000	ms	total	lapplyDots	PIR-LLVM	simple_reduced	1000000	1		
1	10	929.434000	ms	total	lapplyDots	PIR-LLVM	simple_reduced	1000000	1		
1	11	948.324000	ms	total	lapplyDots	PIR-LLVM	simple_reduced	1000000	1		
1	12	781.186000	ms	total	lapplyDots	PIR-LLVM	simple_reduced	1000000	1		
1	13	928.294000	ms	total	lapplyDots	PIR-LLVM	simple_reduced	1000000	1		
1	14	948.344000	ms	total	lapplyDots	PIR-LLVM	simple_reduced	1000000	1		
1	15	908.584000	ms	total	lapplyDots	PIR-LLVM	simple_reduced	1000000	1		
1	1	3114.735000	ms	total	nbody_naive_2	PIR-LLVM	shootout_reduced	20000	1		
1	2	1627.321000	ms	total	nbody_naive_2	PIR-LLVM	shootout_reduced	20000	1		
1	3	2997.699000	ms	total	nbody_naive_2	PIR-LLVM	shootout_reduced	20000	1		
1	4	966.773000	ms	total	nbody_naive_2	PIR-LLVM	shootout_reduced	20000	1		
1	5	961.953000	ms	total	nbody_naive_2	PIR-LLVM	shootout_reduced	20000	1		
1	6	951.447000	ms	total	nbody_naive_2	PIR-LLVM	shootout_reduced	20000	1		
1	7	963.693000	ms	total	nbody_naive_2	PIR-LLVM	shootout_reduced	20000	1		
1	8	954.829000	ms	total	nbody_naive_2	PIR-LLVM	shootout_reduced	20000	1		
1	9	963.351000	ms	total	nbody_naive_2	PIR-LLVM	shootout_reduced	20000	1		
1	10	962.504000	ms	total	nbody_naive_2	PIR-LLVM	shootout_reduced	20000	1		
1	11	950.301000	ms	total	nbody_naive_2	PIR-LLVM	shootout_reduced	20000	1		
1	12	965.488000	ms	total	nbody_naive_2	PIR-LLVM	shootout_reduced	20000	1		
1	13	952.709000	ms	total	nbody_naive_2	PIR-LLVM	shootout_reduced	20000	1		
1	14	964.144000	ms	total	nbody_naive_2	PIR-LLVM	shootout_reduced	20000	1		
1	15	963.134000	ms	total	nbody_naive_2	PIR-LLVM	shootout_reduced	20000	1		
1	1	532.065000	ms	total	reversecomplement_naive	PIR-LLVM	shootout_reduced	50000	1		
1	2	587.060000	ms	total	reversecomplement_naive	PIR-LLVM	shootout_reduced	50000	1		
1	3	992.150000	ms	total	reversecomplement_naive	PIR-LLVM	shootout_reduced	50000	1		
1	4	325.793000	ms	total	reversecomplement_naive	PIR-LLVM	shootout_reduced	50000	1		
1	5	329.184000	ms	total	reversecomplement_naive	PIR-LLVM	shootout_reduced	50000	1		
1	6	325.999000	ms	total	reversecomplement_naive	PIR-LLVM	shootout_reduced	50000	1		
1	7	325.070000	ms	total	reversecomplement_naive	PIR-LLVM	shootout_reduced	50000	1		
1	8	336.277000	ms	total	reversecomplement_naive	PIR-LLVM	shootout_reduced	50000	1		
1	9	321.480000	ms	total	reversecomplement_naive	PIR-LLVM	shootout_reduced	50000	1		
1	10	324.068000	ms	total	reversecomplement_naive	PIR-LLVM	shootout_reduced	50000	1		
1	11	322.436000	ms	total	reversecomplement_naive	PIR-LLVM	shootout_reduced	50000	1		
1	12	321.571000	ms	total	reversecomplement_naive	PIR-LLVM	shootout_reduced	50000	1		
1	13	328.219000	ms	total	reversecomplement_naive	PIR-LLVM	shootout_reduced	50000	1		
1	14	323.678000	ms	total	reversecomplement_naive	PIR-LLVM	shootout_reduced	50000	1		
1	15	339.875000	ms	total	reversecomplement_naive	PIR-LLVM	shootout_reduced	50000	1		
1	1	1670.903000	ms	total	spectralnorm_alt_2	PIR-LLVM	shootout_reduced	1200	1		
1	2	1390.060000	ms	total	spectralnorm_alt_2	PIR-LLVM	shootout_reduced	1200	1		
1	3	2336.430000	ms	total	spectralnorm_alt_2	PIR-LLVM	shootout_reduced	1200	1		
1	4	1180.492000	ms	total	spectralnorm_alt_2	PIR-LLVM	shootout_reduced	1200	1		
1	5	1204.037000	ms	total	spectralnorm_alt_2	PIR-LLVM	shootout_reduced	1200	1		
1	6	1211.092000	ms	total	spectralnorm_alt_2	PIR-LLVM	shootout_reduced	1200	1		
1	7	1199.558000	ms	total	spectralnorm_alt_2	PIR-LLVM	shootout_reduced	1200	1		
1	8	1164.749000	ms	total	spectralnorm_alt_2	PIR-LLVM	shootout_reduced	1200	1		
1	9	1176.052000	ms	total	spectralnorm_alt_2	PIR-LLVM	shootout_reduced	1200	1		
1	10	1191.310000	ms	total	spectralnorm_alt_2	PIR-LLVM	shootout_reduced	1200	1		
1	11	1221.903000	ms	total	spectralnorm_alt_2	PIR-LLVM	shootout_reduced	1200	1		
1	12	1211.720000	ms	total	spectralnorm_alt_2	PIR-LLVM	shootout_reduced	1200	1		
1	13	1163.538000	ms	total	spectralnorm_alt_2	PIR-LLVM	shootout_reduced	1200	1		
1	14	1183.331000	ms	total	spectralnorm_alt_2	PIR-LLVM	shootout_reduced	1200	1		
1	15	1167.264000	ms	total	spectralnorm_alt_2	PIR-LLVM	shootout_reduced	1200	1		
1	1	41577.444000	ms	total	flexclust	PIR-LLVM	real_thing_extra	5	1		
1	2	31535.352000	ms	total	flexclust	PIR-LLVM	real_thing_extra	5	1		
1	3	24450.172000	ms	total	flexclust	PIR-LLVM	real_thing_extra	5	1		
1	4	24797.978000	ms	total	flexclust	PIR-LLVM	real_thing_extra	5	1		
1	5	15651.372000	ms	total	flexclust	PIR-LLVM	real_thing_extra	5	1		
1	6	15488.305000	ms	total	flexclust	PIR-LLVM	real_thing_extra	5	1		
1	7	15700.234000	ms	total	flexclust	PIR-LLVM	real_thing_extra	5	1		
1	8	15524.803000	ms	total	flexclust	PIR-LLVM	real_thing_extra	5	1		
1	9	15529.294000	ms	total	flexclust	PIR-LLVM	real_thing_extra	5	1		
1	10	15452.300000	ms	total	flexclust	PIR-LLVM	real_thing_extra	5	1		
1	11	15449.039000	ms	total	flexclust	PIR-LLVM	real_thing_extra	5	1		
1	12	15468.548000	ms	total	flexclust	PIR-LLVM	real_thing_extra	5	1		
1	13	15389.427000	ms	total	flexclust	PIR-LLVM	real_thing_extra	5	1		
1	14	15503.065000	ms	total	flexclust	PIR-LLVM	real_thing_extra	5	1		
1	15	15140.987000	ms	total	flexclust	PIR-LLVM	real_thing_extra	5	1		
1	1	1993.457000	ms	total	scalarWhile	PIR-LLVM	simple_reduced	25000000	1		
1	2	1916.346000	ms	total	scalarWhile	PIR-LLVM	simple_reduced	25000000	1		
1	3	126.027000	ms	total	scalarWhile	PIR-LLVM	simple_reduced	25000000	1		
1	4	87.582000	ms	total	scalarWhile	PIR-LLVM	simple_reduced	25000000	1		
1	5	87.554000	ms	total	scalarWhile	PIR-LLVM	simple_reduced	25000000	1		
1	6	87.550000	ms	total	scalarWhile	PIR-LLVM	simple_reduced	25000000	1		
1	7	87.550000	ms	total	scalarWhile	PIR-LLVM	simple_reduced	25000000	1		
1	8	87.545000	ms	total	scalarWhile	PIR-LLVM	simple_reduced	25000000	1		
1	9	87.602000	ms	total	scalarWhile	PIR-LLVM	simple_reduced	25000000	1		
1	10	87.550000	ms	total	scalarWhile	PIR-LLVM	simple_reduced	25000000	1		
1	11	87.593000	ms	total	scalarWhile	PIR-LLVM	simple_reduced	25000000	1		
1	12	87.548000	ms	total	scalarWhile	PIR-LLVM	simple_reduced	25000000	1		
1	13	87.564000	ms	total	scalarWhile	PIR-LLVM	simple_reduced	25000000	1		
1	14	87.548000	ms	total	scalarWhile	PIR-LLVM	simple_reduced	25000000	1		
1	15	87.543000	ms	total	scalarWhile	PIR-LLVM	simple_reduced	25000000	1		
1	1	544.719000	ms	total	reversecomplement_2	PIR-LLVM	shootout_reduced	150000	1		
1	2	566.785000	ms	total	reversecomplement_2	PIR-LLVM	shootout_reduced	150000	1		
1	3	1319.093000	ms	total	reversecomplement_2	PIR-LLVM	shootout_reduced	150000	1		
1	4	442.482000	ms	total	reversecomplement_2	PIR-LLVM	shootout_reduced	150000	1		
1	5	430.690000	ms	total	reversecomplement_2	PIR-LLVM	shootout_reduced	150000	1		
1	6	429.619000	ms	total	reversecomplement_2	PIR-LLVM	shootout_reduced	150000	1		
1	7	429.528000	ms	total	reversecomplement_2	PIR-LLVM	shootout_reduced	150000	1		
1	8	430.048000	ms	total	reversecomplement_2	PIR-LLVM	shootout_reduced	150000	1		
1	9	437.711000	ms	total	reversecomplement_2	PIR-LLVM	shootout_reduced	150000	1		
1	10	429.383000	ms	total	reversecomplement_2	PIR-LLVM	shootout_reduced	150000	1		
1	11	469.141000	ms	total	reversecomplement_2	PIR-LLVM	shootout_reduced	150000	1		
1	12	432.567000	ms	total	reversecomplement_2	PIR-LLVM	shootout_reduced	150000	1		
1	13	429.318000	ms	total	reversecomplement_2	PIR-LLVM	shootout_reduced	150000	1		
1	14	429.877000	ms	total	reversecomplement_2	PIR-LLVM	shootout_reduced	150000	1		
1	15	436.507000	ms	total	reversecomplement_2	PIR-LLVM	shootout_reduced	150000	1		
1	1	1548.298000	ms	total	fasta	PIR-LLVM	shootout_reduced	60000	1		
1	2	1262.434000	ms	total	fasta	PIR-LLVM	shootout_reduced	60000	1		
1	3	2012.117000	ms	total	fasta	PIR-LLVM	shootout_reduced	60000	1		
1	4	929.474000	ms	total	fasta	PIR-LLVM	shootout_reduced	60000	1		
1	5	922.550000	ms	total	fasta	PIR-LLVM	shootout_reduced	60000	1		
1	6	925.910000	ms	total	fasta	PIR-LLVM	shootout_reduced	60000	1		
1	7	913.645000	ms	total	fasta	PIR-LLVM	shootout_reduced	60000	1		
1	8	907.744000	ms	total	fasta	PIR-LLVM	shootout_reduced	60000	1		
1	9	914.547000	ms	total	fasta	PIR-LLVM	shootout_reduced	60000	1		
1	10	914.286000	ms	total	fasta	PIR-LLVM	shootout_reduced	60000	1		
1	11	925.082000	ms	total	fasta	PIR-LLVM	shootout_reduced	60000	1		
1	12	911.916000	ms	total	fasta	PIR-LLVM	shootout_reduced	60000	1		
1	13	907.326000	ms	total	fasta	PIR-LLVM	shootout_reduced	60000	1		
1	14	911.009000	ms	total	fasta	PIR-LLVM	shootout_reduced	60000	1		
1	15	916.772000	ms	total	fasta	PIR-LLVM	shootout_reduced	60000	1		
1	1	2412.778000	ms	total	fannkuchredux_naive	PIR-LLVM	shootout_reduced	9	1		
1	2	2379.979000	ms	total	fannkuchredux_naive	PIR-LLVM	shootout_reduced	9	1		
1	3	2621.239000	ms	total	fannkuchredux_naive	PIR-LLVM	shootout_reduced	9	1		
1	4	219.524000	ms	total	fannkuchredux_naive	PIR-LLVM	shootout_reduced	9	1		
1	5	215.416000	ms	total	fannkuchredux_naive	PIR-LLVM	shootout_reduced	9	1		
1	6	213.595000	ms	total	fannkuchredux_naive	PIR-LLVM	shootout_reduced	9	1		
1	7	218.899000	ms	total	fannkuchredux_naive	PIR-LLVM	shootout_reduced	9	1		
1	8	213.533000	ms	total	fannkuchredux_naive	PIR-LLVM	shootout_reduced	9	1		
1	9	214.382000	ms	total	fannkuchredux_naive	PIR-LLVM	shootout_reduced	9	1		
1	10	229.215000	ms	total	fannkuchredux_naive	PIR-LLVM	shootout_reduced	9	1		
1	11	215.093000	ms	total	fannkuchredux_naive	PIR-LLVM	shootout_reduced	9	1		
1	12	218.355000	ms	total	fannkuchredux_naive	PIR-LLVM	shootout_reduced	9	1		
1	13	214.073000	ms	total	fannkuchredux_naive	PIR-LLVM	shootout_reduced	9	1		
1	14	214.750000	ms	total	fannkuchredux_naive	PIR-LLVM	shootout_reduced	9	1		
1	15	218.049000	ms	total	fannkuchredux_naive	PIR-LLVM	shootout_reduced	9	1		
1	1	421.210000	ms	total	mandelbrot_ascii	PIR-LLVM	shootout_reduced	300	1		
1	2	79.875000	ms	total	mandelbrot_ascii	PIR-LLVM	shootout_reduced	300	1		
1	3	801.984000	ms	total	mandelbrot_ascii	PIR-LLVM	shootout_reduced	300	1		
1	4	63.629000	ms	total	mandelbrot_ascii	PIR-LLVM	shootout_reduced	300	1		
1	5	61.767000	ms	total	mandelbrot_ascii	PIR-LLVM	shootout_reduced	300	1		
1	6	61.661000	ms	total	mandelbrot_ascii	PIR-LLVM	shootout_reduced	300	1		
1	7	61.690000	ms	total	mandelbrot_ascii	PIR-LLVM	shootout_reduced	300	1		
1	8	63.265000	ms	total	mandelbrot_ascii	PIR-LLVM	shootout_reduced	300	1		
1	9	61.698000	ms	total	mandelbrot_ascii	PIR-LLVM	shootout_reduced	300	1		
1	10	62.041000	ms	total	mandelbrot_ascii	PIR-LLVM	shootout_reduced	300	1		
1	11	62.144000	ms	total	mandelbrot_ascii	PIR-LLVM	shootout_reduced	300	1		
1	12	63.601000	ms	total	mandelbrot_ascii	PIR-LLVM	shootout_reduced	300	1		
1	13	61.990000	ms	total	mandelbrot_ascii	PIR-LLVM	shootout_reduced	300	1		
1	14	62.104000	ms	total	mandelbrot_ascii	PIR-LLVM	shootout_reduced	300	1		
1	15	62.141000	ms	total	mandelbrot_ascii	PIR-LLVM	shootout_reduced	300	1		
1	1	146.356000	ms	total	listWhile	PIR-LLVM	simple_extra	500000	1		
1	2	139.666000	ms	total	listWhile	PIR-LLVM	simple_extra	500000	1		
1	3	147.959000	ms	total	listWhile	PIR-LLVM	simple_extra	500000	1		
1	4	70.240000	ms	total	listWhile	PIR-LLVM	simple_extra	500000	1		
1	5	69.881000	ms	total	listWhile	PIR-LLVM	simple_extra	500000	1		
1	6	66.240000	ms	total	listWhile	PIR-LLVM	simple_extra	500000	1		
1	7	66.924000	ms	total	listWhile	PIR-LLVM	simple_extra	500000	1		
1	8	67.334000	ms	total	listWhile	PIR-LLVM	simple_extra	500000	1		
1	9	81.163000	ms	total	listWhile	PIR-LLVM	simple_extra	500000	1		
1	10	68.879000	ms	total	listWhile	PIR-LLVM	simple_extra	500000	1		
1	11	57.015000	ms	total	listWhile	PIR-LLVM	simple_extra	500000	1		
1	12	69.530000	ms	total	listWhile	PIR-LLVM	simple_extra	500000	1		
1	13	99.571000	ms	total	listWhile	PIR-LLVM	simple_extra	500000	1		
1	14	56.264000	ms	total	listWhile	PIR-LLVM	simple_extra	500000	1		
1	15	71.844000	ms	total	listWhile	PIR-LLVM	simple_extra	500000	1		
1	1	1558.394000	ms	total	regexdna	PIR-LLVM	shootout_extra	500000	1		
1	2	1513.396000	ms	total	regexdna	PIR-LLVM	shootout_extra	500000	1		
1	3	3174.989000	ms	total	regexdna	PIR-LLVM	shootout_extra	500000	1		
1	4	1431.895000	ms	total	regexdna	PIR-LLVM	shootout_extra	500000	1		
1	5	1436.778000	ms	total	regexdna	PIR-LLVM	shootout_extra	500000	1		
1	6	1451.261000	ms	total	regexdna	PIR-LLVM	shootout_extra	500000	1		
1	7	1434.543000	ms	total	regexdna	PIR-LLVM	shootout_extra	500000	1		
1	8	1440.483000	ms	total	regexdna	PIR-LLVM	shootout_extra	500000	1		
1	9	1437.042000	ms	total	regexdna	PIR-LLVM	shootout_extra	500000	1		
1	10	1455.991000	ms	total	regexdna	PIR-LLVM	shootout_extra	500000	1		
1	11	1435.623000	ms	total	regexdna	PIR-LLVM	shootout_extra	500000	1		
1	12	1436.120000	ms	total	regexdna	PIR-LLVM	shootout_extra	500000	1		
1	13	1435.193000	ms	total	regexdna	PIR-LLVM	shootout_extra	500000	1		
1	14	1451.406000	ms	total	regexdna	PIR-LLVM	shootout_extra	500000	1		
1	15	1435.138000	ms	total	regexdna	PIR-LLVM	shootout_extra	500000	1		
1	1	724.287000	ms	total	convolution_v	PIR-LLVM	real_thing_reduced	100000	1		
1	2	95.541000	ms	total	convolution_v	PIR-LLVM	real_thing_reduced	100000	1		
1	3	499.579000	ms	total	convolution_v	PIR-LLVM	real_thing_reduced	100000	1		
1	4	92.325000	ms	total	convolution_v	PIR-LLVM	real_thing_reduced	100000	1		
1	5	102.998000	ms	total	convolution_v	PIR-LLVM	real_thing_reduced	100000	1		
1	6	93.346000	ms	total	convolution_v	PIR-LLVM	real_thing_reduced	100000	1		
1	7	92.314000	ms	total	convolution_v	PIR-LLVM	real_thing_reduced	100000	1		
1	8	92.208000	ms	total	convolution_v	PIR-LLVM	real_thing_reduced	100000	1		
1	9	92.471000	ms	total	convolution_v	PIR-LLVM	real_thing_reduced	100000	1		
1	10	93.747000	ms	total	convolution_v	PIR-LLVM	real_thing_reduced	100000	1		
1	11	93.572000	ms	total	convolution_v	PIR-LLVM	real_thing_reduced	100000	1		
1	12	91.440000	ms	total	convolution_v	PIR-LLVM	real_thing_reduced	100000	1		
1	13	94.392000	ms	total	convolution_v	PIR-LLVM	real_thing_reduced	100000	1		
1	14	91.497000	ms	total	convolution_v	PIR-LLVM	real_thing_reduced	100000	1		
1	15	92.230000	ms	total	convolution_v	PIR-LLVM	real_thing_reduced	100000	1		
1	1	1469.911000	ms	total	Bounce_nonames	PIR-LLVM	are-we-fast-r	35	1		
1	2	131.218000	ms	total	Bounce_nonames	PIR-LLVM	are-we-fast-r	35	1		
1	3	130.284000	ms	total	Bounce_nonames	PIR-LLVM	are-we-fast-r	35	1		
1	4	140.723000	ms	total	Bounce_nonames	PIR-LLVM	are-we-fast-r	35	1		
1	5	130.311000	ms	total	Bounce_nonames	PIR-LLVM	are-we-fast-r	35	1		
1	6	130.196000	ms	total	Bounce_nonames	PIR-LLVM	are-we-fast-r	35	1		
1	7	132.538000	ms	total	Bounce_nonames	PIR-LLVM	are-we-fast-r	35	1		
1	8	129.532000	ms	total	Bounce_nonames	PIR-LLVM	are-we-fast-r	35	1		
1	9	129.062000	ms	total	Bounce_nonames	PIR-LLVM	are-we-fast-r	35	1		
1	10	129.803000	ms	total	Bounce_nonames	PIR-LLVM	are-we-fast-r	35	1		
1	11	129.711000	ms	total	Bounce_nonames	PIR-LLVM	are-we-fast-r	35	1		
1	12	129.808000	ms	total	Bounce_nonames	PIR-LLVM	are-we-fast-r	35	1		
1	13	131.618000	ms	total	Bounce_nonames	PIR-LLVM	are-we-fast-r	35	1		
1	14	130.818000	ms	total	Bounce_nonames	PIR-LLVM	are-we-fast-r	35	1		
1	15	129.765000	ms	total	Bounce_nonames	PIR-LLVM	are-we-fast-r	35	1		
1	1	2262.403000	ms	total	Bounce	PIR-LLVM	are-we-fast-r	35	1		
1	2	819.727000	ms	total	Bounce	PIR-LLVM	are-we-fast-r	35	1		
1	3	841.067000	ms	total	Bounce	PIR-LLVM	are-we-fast-r	35	1		
1	4	819.830000	ms	total	Bounce	PIR-LLVM	are-we-fast-r	35	1		
1	5	802.307000	ms	total	Bounce	PIR-LLVM	are-we-fast-r	35	1		
1	6	826.286000	ms	total	Bounce	PIR-LLVM	are-we-fast-r	35	1		
1	7	837.298000	ms	total	Bounce	PIR-LLVM	are-we-fast-r	35	1		
1	8	794.136000	ms	total	Bounce	PIR-LLVM	are-we-fast-r	35	1		
1	9	815.139000	ms	total	Bounce	PIR-LLVM	are-we-fast-r	35	1		
1	10	839.269000	ms	total	Bounce	PIR-LLVM	are-we-fast-r	35	1		
1	11	801.994000	ms	total	Bounce	PIR-LLVM	are-we-fast-r	35	1		
1	12	807.624000	ms	total	Bounce	PIR-LLVM	are-we-fast-r	35	1		
1	13	830.764000	ms	total	Bounce	PIR-LLVM	are-we-fast-r	35	1		
1	14	822.284000	ms	total	Bounce	PIR-LLVM	are-we-fast-r	35	1		
1	15	800.999000	ms	total	Bounce	PIR-LLVM	are-we-fast-r	35	1		
1	1	801.493000	ms	total	fasta_naive	PIR-LLVM	shootout_reduced	80000	1		
1	2	852.726000	ms	total	fasta_naive	PIR-LLVM	shootout_reduced	80000	1		
1	3	2001.203000	ms	total	fasta_naive	PIR-LLVM	shootout_reduced	80000	1		
1	4	438.087000	ms	total	fasta_naive	PIR-LLVM	shootout_reduced	80000	1		
1	5	455.091000	ms	total	fasta_naive	PIR-LLVM	shootout_reduced	80000	1		
1	6	410.319000	ms	total	fasta_naive	PIR-LLVM	shootout_reduced	80000	1		
1	7	420.345000	ms	total	fasta_naive	PIR-LLVM	shootout_reduced	80000	1		
1	8	422.650000	ms	total	fasta_naive	PIR-LLVM	shootout_reduced	80000	1		
1	9	434.339000	ms	total	fasta_naive	PIR-LLVM	shootout_reduced	80000	1		
1	10	436.802000	ms	total	fasta_naive	PIR-LLVM	shootout_reduced	80000	1		
1	11	433.117000	ms	total	fasta_naive	PIR-LLVM	shootout_reduced	80000	1		
1	12	415.905000	ms	total	fasta_naive	PIR-LLVM	shootout_reduced	80000	1		
1	13	427.079000	ms	total	fasta_naive	PIR-LLVM	shootout_reduced	80000	1		
1	14	432.667000	ms	total	fasta_naive	PIR-LLVM	shootout_reduced	80000	1		
1	15	434.891000	ms	total	fasta_naive	PIR-LLVM	shootout_reduced	80000	1		
1	1	2911.433000	ms	total	knucleotide	PIR-LLVM	shootout_reduced	2000	1		
1	2	1993.224000	ms	total	knucleotide	PIR-LLVM	shootout_reduced	2000	1		
1	3	6834.521000	ms	total	knucleotide	PIR-LLVM	shootout_reduced	2000	1		
1	4	470.802000	ms	total	knucleotide	PIR-LLVM	shootout_reduced	2000	1		
1	5	490.030000	ms	total	knucleotide	PIR-LLVM	shootout_reduced	2000	1		
1	6	508.060000	ms	total	knucleotide	PIR-LLVM	shootout_reduced	2000	1		
1	7	468.523000	ms	total	knucleotide	PIR-LLVM	shootout_reduced	2000	1		
1	8	402.194000	ms	total	knucleotide	PIR-LLVM	shootout_reduced	2000	1		
1	9	440.175000	ms	total	knucleotide	PIR-LLVM	shootout_reduced	2000	1		
1	10	465.342000	ms	total	knucleotide	PIR-LLVM	shootout_reduced	2000	1		
1	11	488.197000	ms	total	knucleotide	PIR-LLVM	shootout_reduced	2000	1		
1	12	507.032000	ms	total	knucleotide	PIR-LLVM	shootout_reduced	2000	1		
1	13	469.100000	ms	total	knucleotide	PIR-LLVM	shootout_reduced	2000	1		
1	14	404.487000	ms	total	knucleotide	PIR-LLVM	shootout_reduced	2000	1		
1	15	446.776000	ms	total	knucleotide	PIR-LLVM	shootout_reduced	2000	1		
1	1	3368.665000	ms	total	spectralnorm_math	PIR-LLVM	shootout_reduced	1200	1		
1	2	3210.605000	ms	total	spectralnorm_math	PIR-LLVM	shootout_reduced	1200	1		
1	3	3733.052000	ms	total	spectralnorm_math	PIR-LLVM	shootout_reduced	1200	1		
1	4	3170.757000	ms	total	spectralnorm_math	PIR-LLVM	shootout_reduced	1200	1		
1	5	3204.759000	ms	total	spectralnorm_math	PIR-LLVM	shootout_reduced	1200	1		
1	6	3171.174000	ms	total	spectralnorm_math	PIR-LLVM	shootout_reduced	1200	1		
1	7	3184.730000	ms	total	spectralnorm_math	PIR-LLVM	shootout_reduced	1200	1		
1	8	3145.066000	ms	total	spectralnorm_math	PIR-LLVM	shootout_reduced	1200	1		
1	9	3194.028000	ms	total	spectralnorm_math	PIR-LLVM	shootout_reduced	1200	1		
1	10	3206.349000	ms	total	spectralnorm_math	PIR-LLVM	shootout_reduced	1200	1		
1	11	3179.298000	ms	total	spectralnorm_math	PIR-LLVM	shootout_reduced	1200	1		
1	12	3198.573000	ms	total	spectralnorm_math	PIR-LLVM	shootout_reduced	1200	1		
1	13	3196.685000	ms	total	spectralnorm_math	PIR-LLVM	shootout_reduced	1200	1		
1	14	3200.379000	ms	total	spectralnorm_math	PIR-LLVM	shootout_reduced	1200	1		
1	15	3196.352000	ms	total	spectralnorm_math	PIR-LLVM	shootout_reduced	1200	1		
1	1	4241.338000	ms	total	scalarFor	PIR-LLVM	simple_reduced	100000000	1		
1	2	4222.638000	ms	total	scalarFor	PIR-LLVM	simple_reduced	100000000	1		
1	3	21.369000	ms	total	scalarFor	PIR-LLVM	simple_reduced	100000000	1		
1	4	0.027000	ms	total	scalarFor	PIR-LLVM	simple_reduced	100000000	1		
1	5	0.017000	ms	total	scalarFor	PIR-LLVM	simple_reduced	100000000	1		
1	6	0.008000	ms	total	scalarFor	PIR-LLVM	simple_reduced	100000000	1		
1	7	0.008000	ms	total	scalarFor	PIR-LLVM	simple_reduced	100000000	1		
1	8	0.007000	ms	total	scalarFor	PIR-LLVM	simple_reduced	100000000	1		
1	9	0.008000	ms	total	scalarFor	PIR-LLVM	simple_reduced	100000000	1		
1	10	0.007000	ms	total	scalarFor	PIR-LLVM	simple_reduced	100000000	1		
1	11	0.007000	ms	total	scalarFor	PIR-LLVM	simple_reduced	100000000	1		
1	12	0.008000	ms	total	scalarFor	PIR-LLVM	simple_reduced	100000000	1		
1	13	0.007000	ms	total	scalarFor	PIR-LLVM	simple_reduced	100000000	1		
1	14	0.007000	ms	total	scalarFor	PIR-LLVM	simple_reduced	100000000	1		
1	15	0.008000	ms	total	scalarFor	PIR-LLVM	simple_reduced	100000000	1		
1	1	706.130000	ms	total	fastaredux_naive	PIR-LLVM	shootout_reduced	80000	1		
1	2	1372.903000	ms	total	fastaredux_naive	PIR-LLVM	shootout_reduced	80000	1		
1	3	2517.220000	ms	total	fastaredux_naive	PIR-LLVM	shootout_reduced	80000	1		
1	4	440.889000	ms	total	fastaredux_naive	PIR-LLVM	shootout_reduced	80000	1		
1	5	443.810000	ms	total	fastaredux_naive	PIR-LLVM	shootout_reduced	80000	1		
1	6	434.721000	ms	total	fastaredux_naive	PIR-LLVM	shootout_reduced	80000	1		
1	7	416.919000	ms	total	fastaredux_naive	PIR-LLVM	shootout_reduced	80000	1		
1	8	429.158000	ms	total	fastaredux_naive	PIR-LLVM	shootout_reduced	80000	1		
1	9	435.531000	ms	total	fastaredux_naive	PIR-LLVM	shootout_reduced	80000	1		
1	10	439.680000	ms	total	fastaredux_naive	PIR-LLVM	shootout_reduced	80000	1		
1	11	441.040000	ms	total	fastaredux_naive	PIR-LLVM	shootout_reduced	80000	1		
1	12	416.404000	ms	total	fastaredux_naive	PIR-LLVM	shootout_reduced	80000	1		
1	13	425.568000	ms	total	fastaredux_naive	PIR-LLVM	shootout_reduced	80000	1		
1	14	429.386000	ms	total	fastaredux_naive	PIR-LLVM	shootout_reduced	80000	1		
1	15	439.403000	ms	total	fastaredux_naive	PIR-LLVM	shootout_reduced	80000	1		
1	1	255.284000	ms	total	mandelbrot_noout_naive	PIR-LLVM	shootout_reduced	500	1		
1	2	242.305000	ms	total	mandelbrot_noout_naive	PIR-LLVM	shootout_reduced	500	1		
1	3	1035.408000	ms	total	mandelbrot_noout_naive	PIR-LLVM	shootout_reduced	500	1		
1	4	216.886000	ms	total	mandelbrot_noout_naive	PIR-LLVM	shootout_reduced	500	1		
1	5	217.931000	ms	total	mandelbrot_noout_naive	PIR-LLVM	shootout_reduced	500	1		
1	6	217.761000	ms	total	mandelbrot_noout_naive	PIR-LLVM	shootout_reduced	500	1		
1	7	227.763000	ms	total	mandelbrot_noout_naive	PIR-LLVM	shootout_reduced	500	1		
1	8	218.793000	ms	total	mandelbrot_noout_naive	PIR-LLVM	shootout_reduced	500	1		
1	9	227.236000	ms	total	mandelbrot_noout_naive	PIR-LLVM	shootout_reduced	500	1		
1	10	226.068000	ms	total	mandelbrot_noout_naive	PIR-LLVM	shootout_reduced	500	1		
1	11	235.953000	ms	total	mandelbrot_noout_naive	PIR-LLVM	shootout_reduced	500	1		
1	12	222.256000	ms	total	mandelbrot_noout_naive	PIR-LLVM	shootout_reduced	500	1		
1	13	224.441000	ms	total	mandelbrot_noout_naive	PIR-LLVM	shootout_reduced	500	1		
1	14	226.361000	ms	total	mandelbrot_noout_naive	PIR-LLVM	shootout_reduced	500	1		
1	15	237.637000	ms	total	mandelbrot_noout_naive	PIR-LLVM	shootout_reduced	500	1		
1	1	4589.157000	ms	total	knucleotide_brute	PIR-LLVM	shootout_reduced	2000	1		
1	2	5321.813000	ms	total	knucleotide_brute	PIR-LLVM	shootout_reduced	2000	1		
1	3	11372.787000	ms	total	knucleotide_brute	PIR-LLVM	shootout_reduced	2000	1		
1	4	3801.429000	ms	total	knucleotide_brute	PIR-LLVM	shootout_reduced	2000	1		
1	5	3933.206000	ms	total	knucleotide_brute	PIR-LLVM	shootout_reduced	2000	1		
1	6	4004.194000	ms	total	knucleotide_brute	PIR-LLVM	shootout_reduced	2000	1		
1	7	4092.678000	ms	total	knucleotide_brute	PIR-LLVM	shootout_reduced	2000	1		
1	8	4115.960000	ms	total	knucleotide_brute	PIR-LLVM	shootout_reduced	2000	1		
1	9	4096.714000	ms	total	knucleotide_brute	PIR-LLVM	shootout_reduced	2000	1		
1	10	4142.568000	ms	total	knucleotide_brute	PIR-LLVM	shootout_reduced	2000	1		
1	11	3495.318000	ms	total	knucleotide_brute	PIR-LLVM	shootout_reduced	2000	1		
1	12	3495.413000	ms	total	knucleotide_brute	PIR-LLVM	shootout_reduced	2000	1		
1	13	3721.756000	ms	total	knucleotide_brute	PIR-LLVM	shootout_reduced	2000	1		
1	14	3797.373000	ms	total	knucleotide_brute	PIR-LLVM	shootout_reduced	2000	1		
1	15	3963.912000	ms	total	knucleotide_brute	PIR-LLVM	shootout_reduced	2000	1		
1	1	637.281000	ms	total	lapply	PIR-LLVM	simple_reduced	1000000	1		
1	2	745.791000	ms	total	lapply	PIR-LLVM	simple_reduced	1000000	1		
1	3	806.532000	ms	total	lapply	PIR-LLVM	simple_reduced	1000000	1		
1	4	745.976000	ms	total	lapply	PIR-LLVM	simple_reduced	1000000	1		
1	5	791.520000	ms	total	lapply	PIR-LLVM	simple_reduced	1000000	1		
1	6	741.770000	ms	total	lapply	PIR-LLVM	simple_reduced	1000000	1		
1	7	753.073000	ms	total	lapply	PIR-LLVM	simple_reduced	1000000	1		
1	8	750.844000	ms	total	lapply	PIR-LLVM	simple_reduced	1000000	1		
1	9	555.895000	ms	total	lapply	PIR-LLVM	simple_reduced	1000000	1		
1	10	659.636000	ms	total	lapply	PIR-LLVM	simple_reduced	1000000	1		
1	11	672.688000	ms	total	lapply	PIR-LLVM	simple_reduced	1000000	1		
1	12	694.444000	ms	total	lapply	PIR-LLVM	simple_reduced	1000000	1		
1	13	649.146000	ms	total	lapply	PIR-LLVM	simple_reduced	1000000	1		
1	14	564.218000	ms	total	lapply	PIR-LLVM	simple_reduced	1000000	1		
1	15	668.620000	ms	total	lapply	PIR-LLVM	simple_reduced	1000000	1		
1	1	1401.199000	ms	total	spectralnorm_alt_3	PIR-LLVM	shootout_reduced	250	1		
1	2	868.131000	ms	total	spectralnorm_alt_3	PIR-LLVM	shootout_reduced	250	1		
1	3	1305.191000	ms	total	spectralnorm_alt_3	PIR-LLVM	shootout_reduced	250	1		
1	4	98.290000	ms	total	spectralnorm_alt_3	PIR-LLVM	shootout_reduced	250	1		
1	5	96.871000	ms	total	spectralnorm_alt_3	PIR-LLVM	shootout_reduced	250	1		
1	6	101.576000	ms	total	spectralnorm_alt_3	PIR-LLVM	shootout_reduced	250	1		
1	7	97.599000	ms	total	spectralnorm_alt_3	PIR-LLVM	shootout_reduced	250	1		
1	8	95.446000	ms	total	spectralnorm_alt_3	PIR-LLVM	shootout_reduced	250	1		
1	9	96.316000	ms	total	spectralnorm_alt_3	PIR-LLVM	shootout_reduced	250	1		
1	10	97.359000	ms	total	spectralnorm_alt_3	PIR-LLVM	shootout_reduced	250	1		
1	11	95.802000	ms	total	spectralnorm_alt_3	PIR-LLVM	shootout_reduced	250	1		
1	12	95.684000	ms	total	spectralnorm_alt_3	PIR-LLVM	shootout_reduced	250	1		
1	13	97.042000	ms	total	spectralnorm_alt_3	PIR-LLVM	shootout_reduced	250	1		
1	14	96.407000	ms	total	spectralnorm_alt_3	PIR-LLVM	shootout_reduced	250	1		
1	15	97.404000	ms	total	spectralnorm_alt_3	PIR-LLVM	shootout_reduced	250	1		
1	1	419.702000	ms	total	mandelbrot_noout	PIR-LLVM	shootout_reduced	400	1		
1	2	68.272000	ms	total	mandelbrot_noout	PIR-LLVM	shootout_reduced	400	1		
1	3	629.733000	ms	total	mandelbrot_noout	PIR-LLVM	shootout_reduced	400	1		
1	4	64.118000	ms	total	mandelbrot_noout	PIR-LLVM	shootout_reduced	400	1		
1	5	64.843000	ms	total	mandelbrot_noout	PIR-LLVM	shootout_reduced	400	1		
1	6	63.907000	ms	total	mandelbrot_noout	PIR-LLVM	shootout_reduced	400	1		
1	7	63.869000	ms	total	mandelbrot_noout	PIR-LLVM	shootout_reduced	400	1		
1	8	63.956000	ms	total	mandelbrot_noout	PIR-LLVM	shootout_reduced	400	1		
1	9	65.051000	ms	total	mandelbrot_noout	PIR-LLVM	shootout_reduced	400	1		
1	10	74.142000	ms	total	mandelbrot_noout	PIR-LLVM	shootout_reduced	400	1		
1	11	63.997000	ms	total	mandelbrot_noout	PIR-LLVM	shootout_reduced	400	1		
1	12	63.805000	ms	total	mandelbrot_noout	PIR-LLVM	shootout_reduced	400	1		
1	13	63.458000	ms	total	mandelbrot_noout	PIR-LLVM	shootout_reduced	400	1		
1	14	64.854000	ms	total	mandelbrot_noout	PIR-LLVM	shootout_reduced	400	1		
1	15	63.750000	ms	total	mandelbrot_noout	PIR-LLVM	shootout_reduced	400	1		
1	1	954.015000	ms	total	vectorFor	PIR-LLVM	simple_reduced	15000000	1		
1	2	929.050000	ms	total	vectorFor	PIR-LLVM	simple_reduced	15000000	1		
1	3	243.833000	ms	total	vectorFor	PIR-LLVM	simple_reduced	15000000	1		
1	4	185.722000	ms	total	vectorFor	PIR-LLVM	simple_reduced	15000000	1		
1	5	182.015000	ms	total	vectorFor	PIR-LLVM	simple_reduced	15000000	1		
1	6	184.134000	ms	total	vectorFor	PIR-LLVM	simple_reduced	15000000	1		
1	7	182.022000	ms	total	vectorFor	PIR-LLVM	simple_reduced	15000000	1		
1	8	184.011000	ms	total	vectorFor	PIR-LLVM	simple_reduced	15000000	1		
1	9	181.982000	ms	total	vectorFor	PIR-LLVM	simple_reduced	15000000	1		
1	10	184.020000	ms	total	vectorFor	PIR-LLVM	simple_reduced	15000000	1		
1	11	182.051000	ms	total	vectorFor	PIR-LLVM	simple_reduced	15000000	1		
1	12	184.156000	ms	total	vectorFor	PIR-LLVM	simple_reduced	15000000	1		
1	13	182.091000	ms	total	vectorFor	PIR-LLVM	simple_reduced	15000000	1		
1	14	183.915000	ms	total	vectorFor	PIR-LLVM	simple_reduced	15000000	1		
1	15	181.993000	ms	total	vectorFor	PIR-LLVM	simple_reduced	15000000	1		
1	1	1251.677000	ms	total	fasta_3	PIR-LLVM	shootout_reduced	60000	1		
1	2	3709.291000	ms	total	fasta_3	PIR-LLVM	shootout_reduced	60000	1		
1	3	4411.917000	ms	total	fasta_3	PIR-LLVM	shootout_reduced	60000	1		
1	4	908.767000	ms	total	fasta_3	PIR-LLVM	shootout_reduced	60000	1		
1	5	901.726000	ms	total	fasta_3	PIR-LLVM	shootout_reduced	60000	1		
1	6	906.838000	ms	total	fasta_3	PIR-LLVM	shootout_reduced	60000	1		
1	7	907.652000	ms	total	fasta_3	PIR-LLVM	shootout_reduced	60000	1		
1	8	903.286000	ms	total	fasta_3	PIR-LLVM	shootout_reduced	60000	1		
1	9	901.124000	ms	total	fasta_3	PIR-LLVM	shootout_reduced	60000	1		
1	10	926.487000	ms	total	fasta_3	PIR-LLVM	shootout_reduced	60000	1		
1	11	902.121000	ms	total	fasta_3	PIR-LLVM	shootout_reduced	60000	1		
1	12	905.231000	ms	total	fasta_3	PIR-LLVM	shootout_reduced	60000	1		
1	13	902.058000	ms	total	fasta_3	PIR-LLVM	shootout_reduced	60000	1		
1	14	902.628000	ms	total	fasta_3	PIR-LLVM	shootout_reduced	60000	1		
1	15	903.962000	ms	total	fasta_3	PIR-LLVM	shootout_reduced	60000	1		
1	1	3378.226000	ms	total	bytecodes	PIR-LLVM	simple_reduced	9000000	1		
1	2	3373.554000	ms	total	bytecodes	PIR-LLVM	simple_reduced	9000000	1		
1	3	693.624000	ms	total	bytecodes	PIR-LLVM	simple_reduced	9000000	1		
1	4	308.411000	ms	total	bytecodes	PIR-LLVM	simple_reduced	9000000	1		
1	5	308.429000	ms	total	bytecodes	PIR-LLVM	simple_reduced	9000000	1		
1	6	308.401000	ms	total	bytecodes	PIR-LLVM	simple_reduced	9000000	1		
1	7	308.383000	ms	total	bytecodes	PIR-LLVM	simple_reduced	9000000	1		
1	8	308.677000	ms	total	bytecodes	PIR-LLVM	simple_reduced	9000000	1		
1	9	308.396000	ms	total	bytecodes	PIR-LLVM	simple_reduced	9000000	1		
1	10	308.385000	ms	total	bytecodes	PIR-LLVM	simple_reduced	9000000	1		
1	11	308.417000	ms	total	bytecodes	PIR-LLVM	simple_reduced	9000000	1		
1	12	308.394000	ms	total	bytecodes	PIR-LLVM	simple_reduced	9000000	1		
1	13	308.385000	ms	total	bytecodes	PIR-LLVM	simple_reduced	9000000	1		
1	14	308.383000	ms	total	bytecodes	PIR-LLVM	simple_reduced	9000000	1		
1	15	308.404000	ms	total	bytecodes	PIR-LLVM	simple_reduced	9000000	1		
1	1	1958.003000	ms	total	emptyWhile	PIR-LLVM	simple_reduced	30000000	1		
1	2	1954.279000	ms	total	emptyWhile	PIR-LLVM	simple_reduced	30000000	1		
1	3	73.298000	ms	total	emptyWhile	PIR-LLVM	simple_reduced	30000000	1		
1	4	45.049000	ms	total	emptyWhile	PIR-LLVM	simple_reduced	30000000	1		
1	5	45.037000	ms	total	emptyWhile	PIR-LLVM	simple_reduced	30000000	1		
1	6	45.027000	ms	total	emptyWhile	PIR-LLVM	simple_reduced	30000000	1		
1	7	45.028000	ms	total	emptyWhile	PIR-LLVM	simple_reduced	30000000	1		
1	8	45.029000	ms	total	emptyWhile	PIR-LLVM	simple_reduced	30000000	1		
1	9	45.026000	ms	total	emptyWhile	PIR-LLVM	simple_reduced	30000000	1		
1	10	45.026000	ms	total	emptyWhile	PIR-LLVM	simple_reduced	30000000	1		
1	11	45.034000	ms	total	emptyWhile	PIR-LLVM	simple_reduced	30000000	1		
1	12	45.026000	ms	total	emptyWhile	PIR-LLVM	simple_reduced	30000000	1		
1	13	45.044000	ms	total	emptyWhile	PIR-LLVM	simple_reduced	30000000	1		
1	14	45.027000	ms	total	emptyWhile	PIR-LLVM	simple_reduced	30000000	1		
1	15	45.034000	ms	total	emptyWhile	PIR-LLVM	simple_reduced	30000000	1		
1	1	561.983000	ms	total	binarytrees_naive	PIR-LLVM	shootout_reduced	9	1		
1	2	147.560000	ms	total	binarytrees_naive	PIR-LLVM	shootout_reduced	9	1		
1	3	2853.629000	ms	total	binarytrees_naive	PIR-LLVM	shootout_reduced	9	1		
1	4	87.586000	ms	total	binarytrees_naive	PIR-LLVM	shootout_reduced	9	1		
1	5	98.277000	ms	total	binarytrees_naive	PIR-LLVM	shootout_reduced	9	1		
1	6	87.646000	ms	total	binarytrees_naive	PIR-LLVM	shootout_reduced	9	1		
1	7	87.668000	ms	total	binarytrees_naive	PIR-LLVM	shootout_reduced	9	1		
1	8	87.655000	ms	total	binarytrees_naive	PIR-LLVM	shootout_reduced	9	1		
1	9	90.507000	ms	total	binarytrees_naive	PIR-LLVM	shootout_reduced	9	1		
1	10	87.209000	ms	total	binarytrees_naive	PIR-LLVM	shootout_reduced	9	1		
1	11	87.171000	ms	total	binarytrees_naive	PIR-LLVM	shootout_reduced	9	1		
1	12	87.234000	ms	total	binarytrees_naive	PIR-LLVM	shootout_reduced	9	1		
1	13	88.346000	ms	total	binarytrees_naive	PIR-LLVM	shootout_reduced	9	1		
1	14	88.395000	ms	total	binarytrees_naive	PIR-LLVM	shootout_reduced	9	1		
1	15	88.962000	ms	total	binarytrees_naive	PIR-LLVM	shootout_reduced	9	1		
1	1	367.446000	ms	total	spectralnorm_alt	PIR-LLVM	shootout_reduced	1500	1		
1	2	266.629000	ms	total	spectralnorm_alt	PIR-LLVM	shootout_reduced	1500	1		
1	3	1344.494000	ms	total	spectralnorm_alt	PIR-LLVM	shootout_reduced	1500	1		
1	4	209.744000	ms	total	spectralnorm_alt	PIR-LLVM	shootout_reduced	1500	1		
1	5	197.572000	ms	total	spectralnorm_alt	PIR-LLVM	shootout_reduced	1500	1		
1	6	214.224000	ms	total	spectralnorm_alt	PIR-LLVM	shootout_reduced	1500	1		
1	7	201.968000	ms	total	spectralnorm_alt	PIR-LLVM	shootout_reduced	1500	1		
1	8	187.186000	ms	total	spectralnorm_alt	PIR-LLVM	shootout_reduced	1500	1		
1	9	187.584000	ms	total	spectralnorm_alt	PIR-LLVM	shootout_reduced	1500	1		
1	10	198.910000	ms	total	spectralnorm_alt	PIR-LLVM	shootout_reduced	1500	1		
1	11	185.744000	ms	total	spectralnorm_alt	PIR-LLVM	shootout_reduced	1500	1		
1	12	195.465000	ms	total	spectralnorm_alt	PIR-LLVM	shootout_reduced	1500	1		
1	13	192.766000	ms	total	spectralnorm_alt	PIR-LLVM	shootout_reduced	1500	1		
1	14	202.119000	ms	total	spectralnorm_alt	PIR-LLVM	shootout_reduced	1500	1		
1	15	187.031000	ms	total	spectralnorm_alt	PIR-LLVM	shootout_reduced	1500	1		
1	1	1569.664000	ms	total	nbody_2	PIR-LLVM	shootout_reduced	12000	1		
1	2	1289.458000	ms	total	nbody_2	PIR-LLVM	shootout_reduced	12000	1		
1	3	1473.016000	ms	total	nbody_2	PIR-LLVM	shootout_reduced	12000	1		
1	4	659.777000	ms	total	nbody_2	PIR-LLVM	shootout_reduced	12000	1		
1	5	641.797000	ms	total	nbody_2	PIR-LLVM	shootout_reduced	12000	1		
1	6	628.607000	ms	total	nbody_2	PIR-LLVM	shootout_reduced	12000	1		
1	7	643.254000	ms	total	nbody_2	PIR-LLVM	shootout_reduced	12000	1		
1	8	644.459000	ms	total	nbody_2	PIR-LLVM	shootout_reduced	12000	1		
1	9	631.328000	ms	total	nbody_2	PIR-LLVM	shootout_reduced	12000	1		
1	10	637.656000	ms	total	nbody_2	PIR-LLVM	shootout_reduced	12000	1		
1	11	628.958000	ms	total	nbody_2	PIR-LLVM	shootout_reduced	12000	1		
1	12	641.779000	ms	total	nbody_2	PIR-LLVM	shootout_reduced	12000	1		
1	13	653.506000	ms	total	nbody_2	PIR-LLVM	shootout_reduced	12000	1		
1	14	636.640000	ms	total	nbody_2	PIR-LLVM	shootout_reduced	12000	1		
1	15	641.549000	ms	total	nbody_2	PIR-LLVM	shootout_reduced	12000	1		
1	1	718.961000	ms	total	convolution_slow	PIR-LLVM	real_thing_reduced	100000	1		
1	2	94.827000	ms	total	convolution_slow	PIR-LLVM	real_thing_reduced	100000	1		
1	3	496.857000	ms	total	convolution_slow	PIR-LLVM	real_thing_reduced	100000	1		
1	4	92.348000	ms	total	convolution_slow	PIR-LLVM	real_thing_reduced	100000	1		
1	5	102.408000	ms	total	convolution_slow	PIR-LLVM	real_thing_reduced	100000	1		
1	6	93.289000	ms	total	convolution_slow	PIR-LLVM	real_thing_reduced	100000	1		
1	7	91.318000	ms	total	convolution_slow	PIR-LLVM	real_thing_reduced	100000	1		
1	8	91.416000	ms	total	convolution_slow	PIR-LLVM	real_thing_reduced	100000	1		
1	9	91.581000	ms	total	convolution_slow	PIR-LLVM	real_thing_reduced	100000	1		
1	10	92.805000	ms	total	convolution_slow	PIR-LLVM	real_thing_reduced	100000	1		
1	11	92.940000	ms	total	convolution_slow	PIR-LLVM	real_thing_reduced	100000	1		
1	12	90.931000	ms	total	convolution_slow	PIR-LLVM	real_thing_reduced	100000	1		
1	13	93.355000	ms	total	convolution_slow	PIR-LLVM	real_thing_reduced	100000	1		
1	14	90.482000	ms	total	convolution_slow	PIR-LLVM	real_thing_reduced	100000	1		
1	15	92.106000	ms	total	convolution_slow	PIR-LLVM	real_thing_reduced	100000	1		
1	1	194.953000	ms	total	listFor	PIR-LLVM	simple_extra	500000	1		
1	2	197.175000	ms	total	listFor	PIR-LLVM	simple_extra	500000	1		
1	3	95.198000	ms	total	listFor	PIR-LLVM	simple_extra	500000	1		
1	4	69.025000	ms	total	listFor	PIR-LLVM	simple_extra	500000	1		
1	5	76.085000	ms	total	listFor	PIR-LLVM	simple_extra	500000	1		
1	6	56.322000	ms	total	listFor	PIR-LLVM	simple_extra	500000	1		
1	7	64.860000	ms	total	listFor	PIR-LLVM	simple_extra	500000	1		
1	8	53.121000	ms	total	listFor	PIR-LLVM	simple_extra	500000	1		
1	9	65.581000	ms	total	listFor	PIR-LLVM	simple_extra	500000	1		
1	10	80.859000	ms	total	listFor	PIR-LLVM	simple_extra	500000	1		
1	11	58.599000	ms	total	listFor	PIR-LLVM	simple_extra	500000	1		
1	12	60.055000	ms	total	listFor	PIR-LLVM	simple_extra	500000	1		
1	13	68.789000	ms	total	listFor	PIR-LLVM	simple_extra	500000	1		
1	14	74.726000	ms	total	listFor	PIR-LLVM	simple_extra	500000	1		
1	15	48.297000	ms	total	listFor	PIR-LLVM	simple_extra	500000	1		
