#!/usr/local/bin/rebench rebench.conf e:PIR-LLVM -S -df /builds/rirvm/rir_mirror/benchmarks.data --commit-id=c2caf99aea412e4c348fb2f8acb05d03a6a4d1b9 --branch=master
# Execution Start: 2020-05-10T21:19:25
1	1	2700.544000	ms	total	superWhile	PIR-LLVM	simple_reduced	20000000	1		
1	2	2662.416000	ms	total	superWhile	PIR-LLVM	simple_reduced	20000000	1		
1	3	56.551000	ms	total	superWhile	PIR-LLVM	simple_reduced	20000000	1		
1	4	20.212000	ms	total	superWhile	PIR-LLVM	simple_reduced	20000000	1		
1	5	20.231000	ms	total	superWhile	PIR-LLVM	simple_reduced	20000000	1		
1	6	20.218000	ms	total	superWhile	PIR-LLVM	simple_reduced	20000000	1		
1	7	20.188000	ms	total	superWhile	PIR-LLVM	simple_reduced	20000000	1		
1	8	20.190000	ms	total	superWhile	PIR-LLVM	simple_reduced	20000000	1		
1	9	20.188000	ms	total	superWhile	PIR-LLVM	simple_reduced	20000000	1		
1	10	20.186000	ms	total	superWhile	PIR-LLVM	simple_reduced	20000000	1		
1	11	20.185000	ms	total	superWhile	PIR-LLVM	simple_reduced	20000000	1		
1	12	20.185000	ms	total	superWhile	PIR-LLVM	simple_reduced	20000000	1		
1	13	20.182000	ms	total	superWhile	PIR-LLVM	simple_reduced	20000000	1		
1	14	20.189000	ms	total	superWhile	PIR-LLVM	simple_reduced	20000000	1		
1	15	20.189000	ms	total	superWhile	PIR-LLVM	simple_reduced	20000000	1		
1	1	903.548000	ms	total	spectralnorm_naive	PIR-LLVM	shootout_reduced	150	1		
1	2	1047.895000	ms	total	spectralnorm_naive	PIR-LLVM	shootout_reduced	150	1		
1	3	1181.682000	ms	total	spectralnorm_naive	PIR-LLVM	shootout_reduced	150	1		
1	4	38.931000	ms	total	spectralnorm_naive	PIR-LLVM	shootout_reduced	150	1		
1	5	39.100000	ms	total	spectralnorm_naive	PIR-LLVM	shootout_reduced	150	1		
1	6	39.260000	ms	total	spectralnorm_naive	PIR-LLVM	shootout_reduced	150	1		
1	7	38.979000	ms	total	spectralnorm_naive	PIR-LLVM	shootout_reduced	150	1		
1	8	38.813000	ms	total	spectralnorm_naive	PIR-LLVM	shootout_reduced	150	1		
1	9	39.178000	ms	total	spectralnorm_naive	PIR-LLVM	shootout_reduced	150	1		
1	10	39.136000	ms	total	spectralnorm_naive	PIR-LLVM	shootout_reduced	150	1		
1	11	39.116000	ms	total	spectralnorm_naive	PIR-LLVM	shootout_reduced	150	1		
1	12	39.145000	ms	total	spectralnorm_naive	PIR-LLVM	shootout_reduced	150	1		
1	13	39.336000	ms	total	spectralnorm_naive	PIR-LLVM	shootout_reduced	150	1		
1	14	39.153000	ms	total	spectralnorm_naive	PIR-LLVM	shootout_reduced	150	1		
1	15	39.195000	ms	total	spectralnorm_naive	PIR-LLVM	shootout_reduced	150	1		
1	1	1161.577000	ms	total	fasta_2	PIR-LLVM	shootout_reduced	60000	1		
1	2	1574.019000	ms	total	fasta_2	PIR-LLVM	shootout_reduced	60000	1		
1	3	2353.088000	ms	total	fasta_2	PIR-LLVM	shootout_reduced	60000	1		
1	4	887.266000	ms	total	fasta_2	PIR-LLVM	shootout_reduced	60000	1		
1	5	879.939000	ms	total	fasta_2	PIR-LLVM	shootout_reduced	60000	1		
1	6	879.779000	ms	total	fasta_2	PIR-LLVM	shootout_reduced	60000	1		
1	7	879.865000	ms	total	fasta_2	PIR-LLVM	shootout_reduced	60000	1		
1	8	884.363000	ms	total	fasta_2	PIR-LLVM	shootout_reduced	60000	1		
1	9	879.154000	ms	total	fasta_2	PIR-LLVM	shootout_reduced	60000	1		
1	10	867.431000	ms	total	fasta_2	PIR-LLVM	shootout_reduced	60000	1		
1	11	883.250000	ms	total	fasta_2	PIR-LLVM	shootout_reduced	60000	1		
1	12	879.838000	ms	total	fasta_2	PIR-LLVM	shootout_reduced	60000	1		
1	13	868.366000	ms	total	fasta_2	PIR-LLVM	shootout_reduced	60000	1		
1	14	865.000000	ms	total	fasta_2	PIR-LLVM	shootout_reduced	60000	1		
1	15	874.645000	ms	total	fasta_2	PIR-LLVM	shootout_reduced	60000	1		
1	1	2035.154000	ms	total	nbody_3	PIR-LLVM	shootout_reduced	20000	1		
1	2	2001.677000	ms	total	nbody_3	PIR-LLVM	shootout_reduced	20000	1		
1	3	2227.230000	ms	total	nbody_3	PIR-LLVM	shootout_reduced	20000	1		
1	4	1061.420000	ms	total	nbody_3	PIR-LLVM	shootout_reduced	20000	1		
1	5	1070.565000	ms	total	nbody_3	PIR-LLVM	shootout_reduced	20000	1		
1	6	1061.641000	ms	total	nbody_3	PIR-LLVM	shootout_reduced	20000	1		
1	7	1077.986000	ms	total	nbody_3	PIR-LLVM	shootout_reduced	20000	1		
1	8	1063.671000	ms	total	nbody_3	PIR-LLVM	shootout_reduced	20000	1		
1	9	1071.858000	ms	total	nbody_3	PIR-LLVM	shootout_reduced	20000	1		
1	10	1061.276000	ms	total	nbody_3	PIR-LLVM	shootout_reduced	20000	1		
1	11	1059.500000	ms	total	nbody_3	PIR-LLVM	shootout_reduced	20000	1		
1	12	1071.315000	ms	total	nbody_3	PIR-LLVM	shootout_reduced	20000	1		
1	13	1061.585000	ms	total	nbody_3	PIR-LLVM	shootout_reduced	20000	1		
1	14	1069.774000	ms	total	nbody_3	PIR-LLVM	shootout_reduced	20000	1		
1	15	1064.732000	ms	total	nbody_3	PIR-LLVM	shootout_reduced	20000	1		
1	1	568.905000	ms	total	reversecomplement	PIR-LLVM	shootout_reduced	150000	1		
1	2	601.867000	ms	total	reversecomplement	PIR-LLVM	shootout_reduced	150000	1		
1	3	1349.675000	ms	total	reversecomplement	PIR-LLVM	shootout_reduced	150000	1		
1	4	464.360000	ms	total	reversecomplement	PIR-LLVM	shootout_reduced	150000	1		
1	5	463.881000	ms	total	reversecomplement	PIR-LLVM	shootout_reduced	150000	1		
1	6	474.899000	ms	total	reversecomplement	PIR-LLVM	shootout_reduced	150000	1		
1	7	468.879000	ms	total	reversecomplement	PIR-LLVM	shootout_reduced	150000	1		
1	8	464.622000	ms	total	reversecomplement	PIR-LLVM	shootout_reduced	150000	1		
1	9	465.662000	ms	total	reversecomplement	PIR-LLVM	shootout_reduced	150000	1		
1	10	465.788000	ms	total	reversecomplement	PIR-LLVM	shootout_reduced	150000	1		
1	11	462.817000	ms	total	reversecomplement	PIR-LLVM	shootout_reduced	150000	1		
1	12	467.126000	ms	total	reversecomplement	PIR-LLVM	shootout_reduced	150000	1		
1	13	461.929000	ms	total	reversecomplement	PIR-LLVM	shootout_reduced	150000	1		
1	14	465.233000	ms	total	reversecomplement	PIR-LLVM	shootout_reduced	150000	1		
1	15	466.587000	ms	total	reversecomplement	PIR-LLVM	shootout_reduced	150000	1		
1	1	602.871000	ms	total	mandelbrot_naive_ascii	PIR-LLVM	shootout_reduced	200	1		
1	2	591.670000	ms	total	mandelbrot_naive_ascii	PIR-LLVM	shootout_reduced	200	1		
1	3	1301.395000	ms	total	mandelbrot_naive_ascii	PIR-LLVM	shootout_reduced	200	1		
1	4	200.395000	ms	total	mandelbrot_naive_ascii	PIR-LLVM	shootout_reduced	200	1		
1	5	196.281000	ms	total	mandelbrot_naive_ascii	PIR-LLVM	shootout_reduced	200	1		
1	6	195.179000	ms	total	mandelbrot_naive_ascii	PIR-LLVM	shootout_reduced	200	1		
1	7	195.723000	ms	total	mandelbrot_naive_ascii	PIR-LLVM	shootout_reduced	200	1		
1	8	196.168000	ms	total	mandelbrot_naive_ascii	PIR-LLVM	shootout_reduced	200	1		
1	9	195.977000	ms	total	mandelbrot_naive_ascii	PIR-LLVM	shootout_reduced	200	1		
1	10	195.467000	ms	total	mandelbrot_naive_ascii	PIR-LLVM	shootout_reduced	200	1		
1	11	199.984000	ms	total	mandelbrot_naive_ascii	PIR-LLVM	shootout_reduced	200	1		
1	12	196.884000	ms	total	mandelbrot_naive_ascii	PIR-LLVM	shootout_reduced	200	1		
1	13	195.665000	ms	total	mandelbrot_naive_ascii	PIR-LLVM	shootout_reduced	200	1		
1	14	195.805000	ms	total	mandelbrot_naive_ascii	PIR-LLVM	shootout_reduced	200	1		
1	15	195.566000	ms	total	mandelbrot_naive_ascii	PIR-LLVM	shootout_reduced	200	1		
1	1	1799.929000	ms	total	nbody	PIR-LLVM	shootout_reduced	25000	1		
1	2	2493.928000	ms	total	nbody	PIR-LLVM	shootout_reduced	25000	1		
1	3	2283.417000	ms	total	nbody	PIR-LLVM	shootout_reduced	25000	1		
1	4	762.593000	ms	total	nbody	PIR-LLVM	shootout_reduced	25000	1		
1	5	736.454000	ms	total	nbody	PIR-LLVM	shootout_reduced	25000	1		
1	6	734.889000	ms	total	nbody	PIR-LLVM	shootout_reduced	25000	1		
1	7	736.646000	ms	total	nbody	PIR-LLVM	shootout_reduced	25000	1		
1	8	750.398000	ms	total	nbody	PIR-LLVM	shootout_reduced	25000	1		
1	9	734.750000	ms	total	nbody	PIR-LLVM	shootout_reduced	25000	1		
1	10	739.287000	ms	total	nbody	PIR-LLVM	shootout_reduced	25000	1		
1	11	737.916000	ms	total	nbody	PIR-LLVM	shootout_reduced	25000	1		
1	12	746.539000	ms	total	nbody	PIR-LLVM	shootout_reduced	25000	1		
1	13	735.086000	ms	total	nbody	PIR-LLVM	shootout_reduced	25000	1		
1	14	737.103000	ms	total	nbody	PIR-LLVM	shootout_reduced	25000	1		
1	15	739.736000	ms	total	nbody	PIR-LLVM	shootout_reduced	25000	1		
1	1	662.713000	ms	total	fastaredux	PIR-LLVM	shootout_reduced	80000	1		
1	2	1680.724000	ms	total	fastaredux	PIR-LLVM	shootout_reduced	80000	1		
1	3	2460.464000	ms	total	fastaredux	PIR-LLVM	shootout_reduced	80000	1		
1	4	378.427000	ms	total	fastaredux	PIR-LLVM	shootout_reduced	80000	1		
1	5	390.681000	ms	total	fastaredux	PIR-LLVM	shootout_reduced	80000	1		
1	6	376.300000	ms	total	fastaredux	PIR-LLVM	shootout_reduced	80000	1		
1	7	380.265000	ms	total	fastaredux	PIR-LLVM	shootout_reduced	80000	1		
1	8	375.155000	ms	total	fastaredux	PIR-LLVM	shootout_reduced	80000	1		
1	9	383.777000	ms	total	fastaredux	PIR-LLVM	shootout_reduced	80000	1		
1	10	376.839000	ms	total	fastaredux	PIR-LLVM	shootout_reduced	80000	1		
1	11	387.601000	ms	total	fastaredux	PIR-LLVM	shootout_reduced	80000	1		
1	12	382.127000	ms	total	fastaredux	PIR-LLVM	shootout_reduced	80000	1		
1	13	383.359000	ms	total	fastaredux	PIR-LLVM	shootout_reduced	80000	1		
1	14	381.188000	ms	total	fastaredux	PIR-LLVM	shootout_reduced	80000	1		
1	15	384.223000	ms	total	fastaredux	PIR-LLVM	shootout_reduced	80000	1		
1	1	4414.714000	ms	total	knucleotide_brute_3	PIR-LLVM	shootout_reduced	2000	1		
1	2	4306.990000	ms	total	knucleotide_brute_3	PIR-LLVM	shootout_reduced	2000	1		
1	3	12808.990000	ms	total	knucleotide_brute_3	PIR-LLVM	shootout_reduced	2000	1		
1	4	2735.551000	ms	total	knucleotide_brute_3	PIR-LLVM	shootout_reduced	2000	1		
1	5	2745.918000	ms	total	knucleotide_brute_3	PIR-LLVM	shootout_reduced	2000	1		
1	6	2738.985000	ms	total	knucleotide_brute_3	PIR-LLVM	shootout_reduced	2000	1		
1	7	2740.716000	ms	total	knucleotide_brute_3	PIR-LLVM	shootout_reduced	2000	1		
1	8	2727.735000	ms	total	knucleotide_brute_3	PIR-LLVM	shootout_reduced	2000	1		
1	9	2748.121000	ms	total	knucleotide_brute_3	PIR-LLVM	shootout_reduced	2000	1		
1	10	2726.722000	ms	total	knucleotide_brute_3	PIR-LLVM	shootout_reduced	2000	1		
1	11	2739.694000	ms	total	knucleotide_brute_3	PIR-LLVM	shootout_reduced	2000	1		
1	12	2730.039000	ms	total	knucleotide_brute_3	PIR-LLVM	shootout_reduced	2000	1		
1	13	2732.237000	ms	total	knucleotide_brute_3	PIR-LLVM	shootout_reduced	2000	1		
1	14	2731.712000	ms	total	knucleotide_brute_3	PIR-LLVM	shootout_reduced	2000	1		
1	15	2730.251000	ms	total	knucleotide_brute_3	PIR-LLVM	shootout_reduced	2000	1		
1	1	986.528000	ms	total	fasta_naive_2	PIR-LLVM	shootout_reduced	80000	1		
1	2	1269.068000	ms	total	fasta_naive_2	PIR-LLVM	shootout_reduced	80000	1		
1	3	2429.172000	ms	total	fasta_naive_2	PIR-LLVM	shootout_reduced	80000	1		
1	4	623.797000	ms	total	fasta_naive_2	PIR-LLVM	shootout_reduced	80000	1		
1	5	618.801000	ms	total	fasta_naive_2	PIR-LLVM	shootout_reduced	80000	1		
1	6	633.750000	ms	total	fasta_naive_2	PIR-LLVM	shootout_reduced	80000	1		
1	7	622.203000	ms	total	fasta_naive_2	PIR-LLVM	shootout_reduced	80000	1		
1	8	620.670000	ms	total	fasta_naive_2	PIR-LLVM	shootout_reduced	80000	1		
1	9	652.095000	ms	total	fasta_naive_2	PIR-LLVM	shootout_reduced	80000	1		
1	10	608.941000	ms	total	fasta_naive_2	PIR-LLVM	shootout_reduced	80000	1		
1	11	622.156000	ms	total	fasta_naive_2	PIR-LLVM	shootout_reduced	80000	1		
1	12	644.006000	ms	total	fasta_naive_2	PIR-LLVM	shootout_reduced	80000	1		
1	13	612.446000	ms	total	fasta_naive_2	PIR-LLVM	shootout_reduced	80000	1		
1	14	623.935000	ms	total	fasta_naive_2	PIR-LLVM	shootout_reduced	80000	1		
1	15	644.275000	ms	total	fasta_naive_2	PIR-LLVM	shootout_reduced	80000	1		
1	1	17937.577000	ms	total	flexclust_no_s4	PIR-LLVM	real_thing_extra	5	1		
1	2	14096.975000	ms	total	flexclust_no_s4	PIR-LLVM	real_thing_extra	5	1		
1	3	24886.196000	ms	total	flexclust_no_s4	PIR-LLVM	real_thing_extra	5	1		
1	4	25046.278000	ms	total	flexclust_no_s4	PIR-LLVM	real_thing_extra	5	1		
1	5	13129.906000	ms	total	flexclust_no_s4	PIR-LLVM	real_thing_extra	5	1		
1	6	12874.309000	ms	total	flexclust_no_s4	PIR-LLVM	real_thing_extra	5	1		
1	7	13127.276000	ms	total	flexclust_no_s4	PIR-LLVM	real_thing_extra	5	1		
1	8	12897.502000	ms	total	flexclust_no_s4	PIR-LLVM	real_thing_extra	5	1		
1	9	13121.429000	ms	total	flexclust_no_s4	PIR-LLVM	real_thing_extra	5	1		
1	10	12870.324000	ms	total	flexclust_no_s4	PIR-LLVM	real_thing_extra	5	1		
1	11	13177.234000	ms	total	flexclust_no_s4	PIR-LLVM	real_thing_extra	5	1		
1	12	13024.419000	ms	total	flexclust_no_s4	PIR-LLVM	real_thing_extra	5	1		
1	13	13203.078000	ms	total	flexclust_no_s4	PIR-LLVM	real_thing_extra	5	1		
1	14	12979.229000	ms	total	flexclust_no_s4	PIR-LLVM	real_thing_extra	5	1		
1	15	13232.086000	ms	total	flexclust_no_s4	PIR-LLVM	real_thing_extra	5	1		
1	1	3219.946000	ms	total	Mandelbrot	PIR-LLVM	are-we-fast-r	500	1		
1	2	3179.816000	ms	total	Mandelbrot	PIR-LLVM	are-we-fast-r	500	1		
1	3	761.096000	ms	total	Mandelbrot	PIR-LLVM	are-we-fast-r	500	1		
1	4	1267.982000	ms	total	Mandelbrot	PIR-LLVM	are-we-fast-r	500	1		
1	5	64.829000	ms	total	Mandelbrot	PIR-LLVM	are-we-fast-r	500	1		
1	6	64.797000	ms	total	Mandelbrot	PIR-LLVM	are-we-fast-r	500	1		
1	7	64.830000	ms	total	Mandelbrot	PIR-LLVM	are-we-fast-r	500	1		
1	8	64.916000	ms	total	Mandelbrot	PIR-LLVM	are-we-fast-r	500	1		
1	9	64.860000	ms	total	Mandelbrot	PIR-LLVM	are-we-fast-r	500	1		
1	10	64.810000	ms	total	Mandelbrot	PIR-LLVM	are-we-fast-r	500	1		
1	11	65.273000	ms	total	Mandelbrot	PIR-LLVM	are-we-fast-r	500	1		
1	12	64.924000	ms	total	Mandelbrot	PIR-LLVM	are-we-fast-r	500	1		
1	13	64.959000	ms	total	Mandelbrot	PIR-LLVM	are-we-fast-r	500	1		
1	14	65.877000	ms	total	Mandelbrot	PIR-LLVM	are-we-fast-r	500	1		
1	15	64.826000	ms	total	Mandelbrot	PIR-LLVM	are-we-fast-r	500	1		
1	1	2184.608000	ms	total	fannkuchredux	PIR-LLVM	shootout_reduced	9	1		
1	2	2129.778000	ms	total	fannkuchredux	PIR-LLVM	shootout_reduced	9	1		
1	3	3649.306000	ms	total	fannkuchredux	PIR-LLVM	shootout_reduced	9	1		
1	4	811.039000	ms	total	fannkuchredux	PIR-LLVM	shootout_reduced	9	1		
1	5	823.296000	ms	total	fannkuchredux	PIR-LLVM	shootout_reduced	9	1		
1	6	808.352000	ms	total	fannkuchredux	PIR-LLVM	shootout_reduced	9	1		
1	7	821.270000	ms	total	fannkuchredux	PIR-LLVM	shootout_reduced	9	1		
1	8	810.026000	ms	total	fannkuchredux	PIR-LLVM	shootout_reduced	9	1		
1	9	809.681000	ms	total	fannkuchredux	PIR-LLVM	shootout_reduced	9	1		
1	10	823.082000	ms	total	fannkuchredux	PIR-LLVM	shootout_reduced	9	1		
1	11	810.412000	ms	total	fannkuchredux	PIR-LLVM	shootout_reduced	9	1		
1	12	817.932000	ms	total	fannkuchredux	PIR-LLVM	shootout_reduced	9	1		
1	13	812.920000	ms	total	fannkuchredux	PIR-LLVM	shootout_reduced	9	1		
1	14	819.805000	ms	total	fannkuchredux	PIR-LLVM	shootout_reduced	9	1		
1	15	808.845000	ms	total	fannkuchredux	PIR-LLVM	shootout_reduced	9	1		
1	1	2388.458000	ms	total	spectralnorm	PIR-LLVM	shootout_reduced	1200	1		
1	2	2596.288000	ms	total	spectralnorm	PIR-LLVM	shootout_reduced	1200	1		
1	3	2400.753000	ms	total	spectralnorm	PIR-LLVM	shootout_reduced	1200	1		
1	4	70.173000	ms	total	spectralnorm	PIR-LLVM	shootout_reduced	1200	1		
1	5	58.229000	ms	total	spectralnorm	PIR-LLVM	shootout_reduced	1200	1		
1	6	59.692000	ms	total	spectralnorm	PIR-LLVM	shootout_reduced	1200	1		
1	7	59.432000	ms	total	spectralnorm	PIR-LLVM	shootout_reduced	1200	1		
1	8	59.032000	ms	total	spectralnorm	PIR-LLVM	shootout_reduced	1200	1		
1	9	58.641000	ms	total	spectralnorm	PIR-LLVM	shootout_reduced	1200	1		
1	10	60.506000	ms	total	spectralnorm	PIR-LLVM	shootout_reduced	1200	1		
1	11	59.863000	ms	total	spectralnorm	PIR-LLVM	shootout_reduced	1200	1		
1	12	59.552000	ms	total	spectralnorm	PIR-LLVM	shootout_reduced	1200	1		
1	13	58.532000	ms	total	spectralnorm	PIR-LLVM	shootout_reduced	1200	1		
1	14	59.357000	ms	total	spectralnorm	PIR-LLVM	shootout_reduced	1200	1		
1	15	59.914000	ms	total	spectralnorm	PIR-LLVM	shootout_reduced	1200	1		
1	1	33844.935000	ms	total	pidigits	PIR-LLVM	shootout_reduced	30	1		
1	2	786.811000	ms	total	pidigits	PIR-LLVM	shootout_reduced	30	1		
1	3	107891.032000	ms	total	pidigits	PIR-LLVM	shootout_reduced	30	1		
1	4	103.486000	ms	total	pidigits	PIR-LLVM	shootout_reduced	30	1		
1	5	115.087000	ms	total	pidigits	PIR-LLVM	shootout_reduced	30	1		
1	6	103.137000	ms	total	pidigits	PIR-LLVM	shootout_reduced	30	1		
1	7	103.997000	ms	total	pidigits	PIR-LLVM	shootout_reduced	30	1		
1	8	103.275000	ms	total	pidigits	PIR-LLVM	shootout_reduced	30	1		
1	9	103.928000	ms	total	pidigits	PIR-LLVM	shootout_reduced	30	1		
1	10	106.117000	ms	total	pidigits	PIR-LLVM	shootout_reduced	30	1		
1	11	103.817000	ms	total	pidigits	PIR-LLVM	shootout_reduced	30	1		
1	12	103.111000	ms	total	pidigits	PIR-LLVM	shootout_reduced	30	1		
1	13	103.963000	ms	total	pidigits	PIR-LLVM	shootout_reduced	30	1		
1	14	103.289000	ms	total	pidigits	PIR-LLVM	shootout_reduced	30	1		
1	15	114.793000	ms	total	pidigits	PIR-LLVM	shootout_reduced	30	1		
1	1	1992.464000	ms	total	Bounce_nonames_simple	PIR-LLVM	are-we-fast-r	35	1		
1	2	123.194000	ms	total	Bounce_nonames_simple	PIR-LLVM	are-we-fast-r	35	1		
1	3	122.590000	ms	total	Bounce_nonames_simple	PIR-LLVM	are-we-fast-r	35	1		
1	4	133.006000	ms	total	Bounce_nonames_simple	PIR-LLVM	are-we-fast-r	35	1		
1	5	123.504000	ms	total	Bounce_nonames_simple	PIR-LLVM	are-we-fast-r	35	1		
1	6	122.245000	ms	total	Bounce_nonames_simple	PIR-LLVM	are-we-fast-r	35	1		
1	7	125.323000	ms	total	Bounce_nonames_simple	PIR-LLVM	are-we-fast-r	35	1		
1	8	122.620000	ms	total	Bounce_nonames_simple	PIR-LLVM	are-we-fast-r	35	1		
1	9	122.233000	ms	total	Bounce_nonames_simple	PIR-LLVM	are-we-fast-r	35	1		
1	10	124.131000	ms	total	Bounce_nonames_simple	PIR-LLVM	are-we-fast-r	35	1		
1	11	122.111000	ms	total	Bounce_nonames_simple	PIR-LLVM	are-we-fast-r	35	1		
1	12	122.094000	ms	total	Bounce_nonames_simple	PIR-LLVM	are-we-fast-r	35	1		
1	13	123.235000	ms	total	Bounce_nonames_simple	PIR-LLVM	are-we-fast-r	35	1		
1	14	125.483000	ms	total	Bounce_nonames_simple	PIR-LLVM	are-we-fast-r	35	1		
1	15	122.702000	ms	total	Bounce_nonames_simple	PIR-LLVM	are-we-fast-r	35	1		
1	1	21427.418000	ms	total	nbody_naive	PIR-LLVM	shootout_reduced	20000	1		
1	2	1328.939000	ms	total	nbody_naive	PIR-LLVM	shootout_reduced	20000	1		
1	3	42573.003000	ms	total	nbody_naive	PIR-LLVM	shootout_reduced	20000	1		
1	4	150.626000	ms	total	nbody_naive	PIR-LLVM	shootout_reduced	20000	1		
1	5	155.029000	ms	total	nbody_naive	PIR-LLVM	shootout_reduced	20000	1		
1	6	151.975000	ms	total	nbody_naive	PIR-LLVM	shootout_reduced	20000	1		
1	7	150.502000	ms	total	nbody_naive	PIR-LLVM	shootout_reduced	20000	1		
1	8	146.252000	ms	total	nbody_naive	PIR-LLVM	shootout_reduced	20000	1		
1	9	147.650000	ms	total	nbody_naive	PIR-LLVM	shootout_reduced	20000	1		
1	10	154.063000	ms	total	nbody_naive	PIR-LLVM	shootout_reduced	20000	1		
1	11	152.426000	ms	total	nbody_naive	PIR-LLVM	shootout_reduced	20000	1		
1	12	149.548000	ms	total	nbody_naive	PIR-LLVM	shootout_reduced	20000	1		
1	13	146.409000	ms	total	nbody_naive	PIR-LLVM	shootout_reduced	20000	1		
1	14	160.656000	ms	total	nbody_naive	PIR-LLVM	shootout_reduced	20000	1		
1	15	150.700000	ms	total	nbody_naive	PIR-LLVM	shootout_reduced	20000	1		
1	1	1016.612000	ms	total	binarytrees	PIR-LLVM	shootout_reduced	9	1		
1	2	193.336000	ms	total	binarytrees	PIR-LLVM	shootout_reduced	9	1		
1	3	1387.926000	ms	total	binarytrees	PIR-LLVM	shootout_reduced	9	1		
1	4	74.787000	ms	total	binarytrees	PIR-LLVM	shootout_reduced	9	1		
1	5	75.027000	ms	total	binarytrees	PIR-LLVM	shootout_reduced	9	1		
1	6	85.835000	ms	total	binarytrees	PIR-LLVM	shootout_reduced	9	1		
1	7	75.671000	ms	total	binarytrees	PIR-LLVM	shootout_reduced	9	1		
1	8	75.000000	ms	total	binarytrees	PIR-LLVM	shootout_reduced	9	1		
1	9	75.360000	ms	total	binarytrees	PIR-LLVM	shootout_reduced	9	1		
1	10	75.762000	ms	total	binarytrees	PIR-LLVM	shootout_reduced	9	1		
1	11	78.329000	ms	total	binarytrees	PIR-LLVM	shootout_reduced	9	1		
1	12	75.758000	ms	total	binarytrees	PIR-LLVM	shootout_reduced	9	1		
1	13	75.532000	ms	total	binarytrees	PIR-LLVM	shootout_reduced	9	1		
1	14	75.901000	ms	total	binarytrees	PIR-LLVM	shootout_reduced	9	1		
1	15	75.979000	ms	total	binarytrees	PIR-LLVM	shootout_reduced	9	1		
1	1	1236.955000	ms	total	Storage	PIR-LLVM	are-we-fast-r	100	1		
1	2	546.511000	ms	total	Storage	PIR-LLVM	are-we-fast-r	100	1		
1	3	553.290000	ms	total	Storage	PIR-LLVM	are-we-fast-r	100	1		
1	4	568.103000	ms	total	Storage	PIR-LLVM	are-we-fast-r	100	1		
1	5	563.315000	ms	total	Storage	PIR-LLVM	are-we-fast-r	100	1		
1	6	537.386000	ms	total	Storage	PIR-LLVM	are-we-fast-r	100	1		
1	7	539.204000	ms	total	Storage	PIR-LLVM	are-we-fast-r	100	1		
1	8	547.264000	ms	total	Storage	PIR-LLVM	are-we-fast-r	100	1		
1	9	548.066000	ms	total	Storage	PIR-LLVM	are-we-fast-r	100	1		
1	10	559.764000	ms	total	Storage	PIR-LLVM	are-we-fast-r	100	1		
1	11	544.805000	ms	total	Storage	PIR-LLVM	are-we-fast-r	100	1		
1	12	539.084000	ms	total	Storage	PIR-LLVM	are-we-fast-r	100	1		
1	13	535.872000	ms	total	Storage	PIR-LLVM	are-we-fast-r	100	1		
1	14	545.240000	ms	total	Storage	PIR-LLVM	are-we-fast-r	100	1		
1	15	566.561000	ms	total	Storage	PIR-LLVM	are-we-fast-r	100	1		
1	1	367.346000	ms	total	matrixFor	PIR-LLVM	simple_reduced	2000	1		
1	2	377.492000	ms	total	matrixFor	PIR-LLVM	simple_reduced	2000	1		
1	3	163.462000	ms	total	matrixFor	PIR-LLVM	simple_reduced	2000	1		
1	4	52.641000	ms	total	matrixFor	PIR-LLVM	simple_reduced	2000	1		
1	5	52.584000	ms	total	matrixFor	PIR-LLVM	simple_reduced	2000	1		
1	6	52.555000	ms	total	matrixFor	PIR-LLVM	simple_reduced	2000	1		
1	7	52.601000	ms	total	matrixFor	PIR-LLVM	simple_reduced	2000	1		
1	8	52.579000	ms	total	matrixFor	PIR-LLVM	simple_reduced	2000	1		
1	9	52.582000	ms	total	matrixFor	PIR-LLVM	simple_reduced	2000	1		
1	10	52.567000	ms	total	matrixFor	PIR-LLVM	simple_reduced	2000	1		
1	11	52.570000	ms	total	matrixFor	PIR-LLVM	simple_reduced	2000	1		
1	12	52.598000	ms	total	matrixFor	PIR-LLVM	simple_reduced	2000	1		
1	13	52.563000	ms	total	matrixFor	PIR-LLVM	simple_reduced	2000	1		
1	14	52.562000	ms	total	matrixFor	PIR-LLVM	simple_reduced	2000	1		
1	15	52.588000	ms	total	matrixFor	PIR-LLVM	simple_reduced	2000	1		
1	1	1996.224000	ms	total	vectorWhile	PIR-LLVM	simple_reduced	20000000	1		
1	2	1977.968000	ms	total	vectorWhile	PIR-LLVM	simple_reduced	20000000	1		
1	3	180.852000	ms	total	vectorWhile	PIR-LLVM	simple_reduced	20000000	1		
1	4	125.584000	ms	total	vectorWhile	PIR-LLVM	simple_reduced	20000000	1		
1	5	140.870000	ms	total	vectorWhile	PIR-LLVM	simple_reduced	20000000	1		
1	6	127.445000	ms	total	vectorWhile	PIR-LLVM	simple_reduced	20000000	1		
1	7	127.540000	ms	total	vectorWhile	PIR-LLVM	simple_reduced	20000000	1		
1	8	127.457000	ms	total	vectorWhile	PIR-LLVM	simple_reduced	20000000	1		
1	9	127.418000	ms	total	vectorWhile	PIR-LLVM	simple_reduced	20000000	1		
1	10	127.422000	ms	total	vectorWhile	PIR-LLVM	simple_reduced	20000000	1		
1	11	127.431000	ms	total	vectorWhile	PIR-LLVM	simple_reduced	20000000	1		
1	12	127.413000	ms	total	vectorWhile	PIR-LLVM	simple_reduced	20000000	1		
1	13	127.429000	ms	total	vectorWhile	PIR-LLVM	simple_reduced	20000000	1		
1	14	127.452000	ms	total	vectorWhile	PIR-LLVM	simple_reduced	20000000	1		
1	15	127.451000	ms	total	vectorWhile	PIR-LLVM	simple_reduced	20000000	1		
1	1	713.819000	ms	total	convolution	PIR-LLVM	real_thing_reduced	500	1		
1	2	12.743000	ms	total	convolution	PIR-LLVM	real_thing_reduced	500	1		
1	3	542.919000	ms	total	convolution	PIR-LLVM	real_thing_reduced	500	1		
1	4	12.057000	ms	total	convolution	PIR-LLVM	real_thing_reduced	500	1		
1	5	12.045000	ms	total	convolution	PIR-LLVM	real_thing_reduced	500	1		
1	6	12.042000	ms	total	convolution	PIR-LLVM	real_thing_reduced	500	1		
1	7	12.043000	ms	total	convolution	PIR-LLVM	real_thing_reduced	500	1		
1	8	12.037000	ms	total	convolution	PIR-LLVM	real_thing_reduced	500	1		
1	9	12.038000	ms	total	convolution	PIR-LLVM	real_thing_reduced	500	1		
1	10	12.039000	ms	total	convolution	PIR-LLVM	real_thing_reduced	500	1		
1	11	12.058000	ms	total	convolution	PIR-LLVM	real_thing_reduced	500	1		
1	12	12.047000	ms	total	convolution	PIR-LLVM	real_thing_reduced	500	1		
1	13	12.032000	ms	total	convolution	PIR-LLVM	real_thing_reduced	500	1		
1	14	12.034000	ms	total	convolution	PIR-LLVM	real_thing_reduced	500	1		
1	15	12.036000	ms	total	convolution	PIR-LLVM	real_thing_reduced	500	1		
1	1	3564.542000	ms	total	knucleotide_brute_2	PIR-LLVM	shootout_reduced	2000	1		
1	2	4369.438000	ms	total	knucleotide_brute_2	PIR-LLVM	shootout_reduced	2000	1		
1	3	14130.653000	ms	total	knucleotide_brute_2	PIR-LLVM	shootout_reduced	2000	1		
1	4	2875.333000	ms	total	knucleotide_brute_2	PIR-LLVM	shootout_reduced	2000	1		
1	5	3130.755000	ms	total	knucleotide_brute_2	PIR-LLVM	shootout_reduced	2000	1		
1	6	3461.720000	ms	total	knucleotide_brute_2	PIR-LLVM	shootout_reduced	2000	1		
1	7	3477.766000	ms	total	knucleotide_brute_2	PIR-LLVM	shootout_reduced	2000	1		
1	8	3023.682000	ms	total	knucleotide_brute_2	PIR-LLVM	shootout_reduced	2000	1		
1	9	3949.497000	ms	total	knucleotide_brute_2	PIR-LLVM	shootout_reduced	2000	1		
1	10	3969.577000	ms	total	knucleotide_brute_2	PIR-LLVM	shootout_reduced	2000	1		
1	11	2059.478000	ms	total	knucleotide_brute_2	PIR-LLVM	shootout_reduced	2000	1		
1	12	2106.724000	ms	total	knucleotide_brute_2	PIR-LLVM	shootout_reduced	2000	1		
1	13	2200.643000	ms	total	knucleotide_brute_2	PIR-LLVM	shootout_reduced	2000	1		
1	14	3049.626000	ms	total	knucleotide_brute_2	PIR-LLVM	shootout_reduced	2000	1		
1	15	3161.006000	ms	total	knucleotide_brute_2	PIR-LLVM	shootout_reduced	2000	1		
1	1	1153.826000	ms	total	binarytrees_2	PIR-LLVM	shootout_reduced	9	1		
1	2	135.897000	ms	total	binarytrees_2	PIR-LLVM	shootout_reduced	9	1		
1	3	1421.411000	ms	total	binarytrees_2	PIR-LLVM	shootout_reduced	9	1		
1	4	88.520000	ms	total	binarytrees_2	PIR-LLVM	shootout_reduced	9	1		
1	5	98.705000	ms	total	binarytrees_2	PIR-LLVM	shootout_reduced	9	1		
1	6	88.005000	ms	total	binarytrees_2	PIR-LLVM	shootout_reduced	9	1		
1	7	87.920000	ms	total	binarytrees_2	PIR-LLVM	shootout_reduced	9	1		
1	8	87.875000	ms	total	binarytrees_2	PIR-LLVM	shootout_reduced	9	1		
1	9	90.806000	ms	total	binarytrees_2	PIR-LLVM	shootout_reduced	9	1		
1	10	88.125000	ms	total	binarytrees_2	PIR-LLVM	shootout_reduced	9	1		
1	11	88.252000	ms	total	binarytrees_2	PIR-LLVM	shootout_reduced	9	1		
1	12	88.270000	ms	total	binarytrees_2	PIR-LLVM	shootout_reduced	9	1		
1	13	90.220000	ms	total	binarytrees_2	PIR-LLVM	shootout_reduced	9	1		
1	14	89.390000	ms	total	binarytrees_2	PIR-LLVM	shootout_reduced	9	1		
1	15	89.327000	ms	total	binarytrees_2	PIR-LLVM	shootout_reduced	9	1		
1	1	3042.885000	ms	total	emptyFor	PIR-LLVM	simple_reduced	100000000	1		
1	2	2998.872000	ms	total	emptyFor	PIR-LLVM	simple_reduced	100000000	1		
1	3	15.470000	ms	total	emptyFor	PIR-LLVM	simple_reduced	100000000	1		
1	4	0.029000	ms	total	emptyFor	PIR-LLVM	simple_reduced	100000000	1		
1	5	0.013000	ms	total	emptyFor	PIR-LLVM	simple_reduced	100000000	1		
1	6	0.010000	ms	total	emptyFor	PIR-LLVM	simple_reduced	100000000	1		
1	7	0.009000	ms	total	emptyFor	PIR-LLVM	simple_reduced	100000000	1		
1	8	0.010000	ms	total	emptyFor	PIR-LLVM	simple_reduced	100000000	1		
1	9	0.010000	ms	total	emptyFor	PIR-LLVM	simple_reduced	100000000	1		
1	10	0.009000	ms	total	emptyFor	PIR-LLVM	simple_reduced	100000000	1		
1	11	0.009000	ms	total	emptyFor	PIR-LLVM	simple_reduced	100000000	1		
1	12	0.010000	ms	total	emptyFor	PIR-LLVM	simple_reduced	100000000	1		
1	13	0.008000	ms	total	emptyFor	PIR-LLVM	simple_reduced	100000000	1		
1	14	0.008000	ms	total	emptyFor	PIR-LLVM	simple_reduced	100000000	1		
1	15	0.008000	ms	total	emptyFor	PIR-LLVM	simple_reduced	100000000	1		
1	1	756.605000	ms	total	lapplyDots	PIR-LLVM	simple_reduced	1000000	1		
1	2	922.442000	ms	total	lapplyDots	PIR-LLVM	simple_reduced	1000000	1		
1	3	839.906000	ms	total	lapplyDots	PIR-LLVM	simple_reduced	1000000	1		
1	4	1048.306000	ms	total	lapplyDots	PIR-LLVM	simple_reduced	1000000	1		
1	5	982.795000	ms	total	lapplyDots	PIR-LLVM	simple_reduced	1000000	1		
1	6	926.394000	ms	total	lapplyDots	PIR-LLVM	simple_reduced	1000000	1		
1	7	947.074000	ms	total	lapplyDots	PIR-LLVM	simple_reduced	1000000	1		
1	8	822.004000	ms	total	lapplyDots	PIR-LLVM	simple_reduced	1000000	1		
1	9	927.798000	ms	total	lapplyDots	PIR-LLVM	simple_reduced	1000000	1		
1	10	947.295000	ms	total	lapplyDots	PIR-LLVM	simple_reduced	1000000	1		
1	11	966.721000	ms	total	lapplyDots	PIR-LLVM	simple_reduced	1000000	1		
1	12	801.917000	ms	total	lapplyDots	PIR-LLVM	simple_reduced	1000000	1		
1	13	945.369000	ms	total	lapplyDots	PIR-LLVM	simple_reduced	1000000	1		
1	14	968.299000	ms	total	lapplyDots	PIR-LLVM	simple_reduced	1000000	1		
1	15	928.921000	ms	total	lapplyDots	PIR-LLVM	simple_reduced	1000000	1		
1	1	3122.256000	ms	total	nbody_naive_2	PIR-LLVM	shootout_reduced	20000	1		
1	2	1626.037000	ms	total	nbody_naive_2	PIR-LLVM	shootout_reduced	20000	1		
1	3	4688.031000	ms	total	nbody_naive_2	PIR-LLVM	shootout_reduced	20000	1		
1	4	979.600000	ms	total	nbody_naive_2	PIR-LLVM	shootout_reduced	20000	1		
1	5	977.268000	ms	total	nbody_naive_2	PIR-LLVM	shootout_reduced	20000	1		
1	6	961.641000	ms	total	nbody_naive_2	PIR-LLVM	shootout_reduced	20000	1		
1	7	975.461000	ms	total	nbody_naive_2	PIR-LLVM	shootout_reduced	20000	1		
1	8	966.521000	ms	total	nbody_naive_2	PIR-LLVM	shootout_reduced	20000	1		
1	9	977.292000	ms	total	nbody_naive_2	PIR-LLVM	shootout_reduced	20000	1		
1	10	972.909000	ms	total	nbody_naive_2	PIR-LLVM	shootout_reduced	20000	1		
1	11	962.841000	ms	total	nbody_naive_2	PIR-LLVM	shootout_reduced	20000	1		
1	12	971.673000	ms	total	nbody_naive_2	PIR-LLVM	shootout_reduced	20000	1		
1	13	964.684000	ms	total	nbody_naive_2	PIR-LLVM	shootout_reduced	20000	1		
1	14	977.207000	ms	total	nbody_naive_2	PIR-LLVM	shootout_reduced	20000	1		
1	15	976.276000	ms	total	nbody_naive_2	PIR-LLVM	shootout_reduced	20000	1		
1	1	538.199000	ms	total	reversecomplement_naive	PIR-LLVM	shootout_reduced	50000	1		
1	2	574.413000	ms	total	reversecomplement_naive	PIR-LLVM	shootout_reduced	50000	1		
1	3	1236.668000	ms	total	reversecomplement_naive	PIR-LLVM	shootout_reduced	50000	1		
1	4	329.856000	ms	total	reversecomplement_naive	PIR-LLVM	shootout_reduced	50000	1		
1	5	333.375000	ms	total	reversecomplement_naive	PIR-LLVM	shootout_reduced	50000	1		
1	6	329.840000	ms	total	reversecomplement_naive	PIR-LLVM	shootout_reduced	50000	1		
1	7	329.204000	ms	total	reversecomplement_naive	PIR-LLVM	shootout_reduced	50000	1		
1	8	339.314000	ms	total	reversecomplement_naive	PIR-LLVM	shootout_reduced	50000	1		
1	9	326.278000	ms	total	reversecomplement_naive	PIR-LLVM	shootout_reduced	50000	1		
1	10	329.129000	ms	total	reversecomplement_naive	PIR-LLVM	shootout_reduced	50000	1		
1	11	326.334000	ms	total	reversecomplement_naive	PIR-LLVM	shootout_reduced	50000	1		
1	12	325.999000	ms	total	reversecomplement_naive	PIR-LLVM	shootout_reduced	50000	1		
1	13	330.180000	ms	total	reversecomplement_naive	PIR-LLVM	shootout_reduced	50000	1		
1	14	326.106000	ms	total	reversecomplement_naive	PIR-LLVM	shootout_reduced	50000	1		
1	15	338.471000	ms	total	reversecomplement_naive	PIR-LLVM	shootout_reduced	50000	1		
1	1	1681.300000	ms	total	spectralnorm_alt_2	PIR-LLVM	shootout_reduced	1200	1		
1	2	1387.141000	ms	total	spectralnorm_alt_2	PIR-LLVM	shootout_reduced	1200	1		
1	3	2570.832000	ms	total	spectralnorm_alt_2	PIR-LLVM	shootout_reduced	1200	1		
1	4	1199.790000	ms	total	spectralnorm_alt_2	PIR-LLVM	shootout_reduced	1200	1		
1	5	1183.037000	ms	total	spectralnorm_alt_2	PIR-LLVM	shootout_reduced	1200	1		
1	6	1226.586000	ms	total	spectralnorm_alt_2	PIR-LLVM	shootout_reduced	1200	1		
1	7	1166.483000	ms	total	spectralnorm_alt_2	PIR-LLVM	shootout_reduced	1200	1		
1	8	1146.384000	ms	total	spectralnorm_alt_2	PIR-LLVM	shootout_reduced	1200	1		
1	9	1199.359000	ms	total	spectralnorm_alt_2	PIR-LLVM	shootout_reduced	1200	1		
1	10	1201.145000	ms	total	spectralnorm_alt_2	PIR-LLVM	shootout_reduced	1200	1		
1	11	1211.218000	ms	total	spectralnorm_alt_2	PIR-LLVM	shootout_reduced	1200	1		
1	12	1207.472000	ms	total	spectralnorm_alt_2	PIR-LLVM	shootout_reduced	1200	1		
1	13	1185.594000	ms	total	spectralnorm_alt_2	PIR-LLVM	shootout_reduced	1200	1		
1	14	1177.435000	ms	total	spectralnorm_alt_2	PIR-LLVM	shootout_reduced	1200	1		
1	15	1193.439000	ms	total	spectralnorm_alt_2	PIR-LLVM	shootout_reduced	1200	1		
1	1	42595.687000	ms	total	flexclust	PIR-LLVM	real_thing_extra	5	1		
1	2	28498.420000	ms	total	flexclust	PIR-LLVM	real_thing_extra	5	1		
1	3	25609.037000	ms	total	flexclust	PIR-LLVM	real_thing_extra	5	1		
1	4	35831.382000	ms	total	flexclust	PIR-LLVM	real_thing_extra	5	1		
1	5	22734.214000	ms	total	flexclust	PIR-LLVM	real_thing_extra	5	1		
1	6	15729.780000	ms	total	flexclust	PIR-LLVM	real_thing_extra	5	1		
1	7	15650.718000	ms	total	flexclust	PIR-LLVM	real_thing_extra	5	1		
1	8	15516.739000	ms	total	flexclust	PIR-LLVM	real_thing_extra	5	1		
1	9	15747.672000	ms	total	flexclust	PIR-LLVM	real_thing_extra	5	1		
1	10	15620.297000	ms	total	flexclust	PIR-LLVM	real_thing_extra	5	1		
1	11	15782.309000	ms	total	flexclust	PIR-LLVM	real_thing_extra	5	1		
1	12	15661.028000	ms	total	flexclust	PIR-LLVM	real_thing_extra	5	1		
1	13	15595.949000	ms	total	flexclust	PIR-LLVM	real_thing_extra	5	1		
1	14	15674.731000	ms	total	flexclust	PIR-LLVM	real_thing_extra	5	1		
1	15	15703.071000	ms	total	flexclust	PIR-LLVM	real_thing_extra	5	1		
1	1	1972.877000	ms	total	scalarWhile	PIR-LLVM	simple_reduced	25000000	1		
1	2	1964.688000	ms	total	scalarWhile	PIR-LLVM	simple_reduced	25000000	1		
1	3	43.762000	ms	total	scalarWhile	PIR-LLVM	simple_reduced	25000000	1		
1	4	25.249000	ms	total	scalarWhile	PIR-LLVM	simple_reduced	25000000	1		
1	5	25.231000	ms	total	scalarWhile	PIR-LLVM	simple_reduced	25000000	1		
1	6	25.235000	ms	total	scalarWhile	PIR-LLVM	simple_reduced	25000000	1		
1	7	25.224000	ms	total	scalarWhile	PIR-LLVM	simple_reduced	25000000	1		
1	8	25.228000	ms	total	scalarWhile	PIR-LLVM	simple_reduced	25000000	1		
1	9	25.223000	ms	total	scalarWhile	PIR-LLVM	simple_reduced	25000000	1		
1	10	25.226000	ms	total	scalarWhile	PIR-LLVM	simple_reduced	25000000	1		
1	11	25.228000	ms	total	scalarWhile	PIR-LLVM	simple_reduced	25000000	1		
1	12	25.222000	ms	total	scalarWhile	PIR-LLVM	simple_reduced	25000000	1		
1	13	25.226000	ms	total	scalarWhile	PIR-LLVM	simple_reduced	25000000	1		
1	14	25.229000	ms	total	scalarWhile	PIR-LLVM	simple_reduced	25000000	1		
1	15	25.222000	ms	total	scalarWhile	PIR-LLVM	simple_reduced	25000000	1		
1	1	615.117000	ms	total	reversecomplement_2	PIR-LLVM	shootout_reduced	150000	1		
1	2	567.803000	ms	total	reversecomplement_2	PIR-LLVM	shootout_reduced	150000	1		
1	3	1616.765000	ms	total	reversecomplement_2	PIR-LLVM	shootout_reduced	150000	1		
1	4	418.560000	ms	total	reversecomplement_2	PIR-LLVM	shootout_reduced	150000	1		
1	5	408.133000	ms	total	reversecomplement_2	PIR-LLVM	shootout_reduced	150000	1		
1	6	408.531000	ms	total	reversecomplement_2	PIR-LLVM	shootout_reduced	150000	1		
1	7	406.773000	ms	total	reversecomplement_2	PIR-LLVM	shootout_reduced	150000	1		
1	8	408.612000	ms	total	reversecomplement_2	PIR-LLVM	shootout_reduced	150000	1		
1	9	415.365000	ms	total	reversecomplement_2	PIR-LLVM	shootout_reduced	150000	1		
1	10	406.416000	ms	total	reversecomplement_2	PIR-LLVM	shootout_reduced	150000	1		
1	11	409.013000	ms	total	reversecomplement_2	PIR-LLVM	shootout_reduced	150000	1		
1	12	410.978000	ms	total	reversecomplement_2	PIR-LLVM	shootout_reduced	150000	1		
1	13	407.384000	ms	total	reversecomplement_2	PIR-LLVM	shootout_reduced	150000	1		
1	14	406.031000	ms	total	reversecomplement_2	PIR-LLVM	shootout_reduced	150000	1		
1	15	409.929000	ms	total	reversecomplement_2	PIR-LLVM	shootout_reduced	150000	1		
1	1	1535.236000	ms	total	fasta	PIR-LLVM	shootout_reduced	60000	1		
1	2	1258.308000	ms	total	fasta	PIR-LLVM	shootout_reduced	60000	1		
1	3	2042.504000	ms	total	fasta	PIR-LLVM	shootout_reduced	60000	1		
1	4	912.202000	ms	total	fasta	PIR-LLVM	shootout_reduced	60000	1		
1	5	908.687000	ms	total	fasta	PIR-LLVM	shootout_reduced	60000	1		
1	6	908.501000	ms	total	fasta	PIR-LLVM	shootout_reduced	60000	1		
1	7	906.339000	ms	total	fasta	PIR-LLVM	shootout_reduced	60000	1		
1	8	902.860000	ms	total	fasta	PIR-LLVM	shootout_reduced	60000	1		
1	9	905.474000	ms	total	fasta	PIR-LLVM	shootout_reduced	60000	1		
1	10	897.079000	ms	total	fasta	PIR-LLVM	shootout_reduced	60000	1		
1	11	888.751000	ms	total	fasta	PIR-LLVM	shootout_reduced	60000	1		
1	12	888.510000	ms	total	fasta	PIR-LLVM	shootout_reduced	60000	1		
1	13	895.174000	ms	total	fasta	PIR-LLVM	shootout_reduced	60000	1		
1	14	906.491000	ms	total	fasta	PIR-LLVM	shootout_reduced	60000	1		
1	15	904.789000	ms	total	fasta	PIR-LLVM	shootout_reduced	60000	1		
1	1	2461.498000	ms	total	fannkuchredux_naive	PIR-LLVM	shootout_reduced	9	1		
1	2	2438.963000	ms	total	fannkuchredux_naive	PIR-LLVM	shootout_reduced	9	1		
1	3	2928.104000	ms	total	fannkuchredux_naive	PIR-LLVM	shootout_reduced	9	1		
1	4	213.935000	ms	total	fannkuchredux_naive	PIR-LLVM	shootout_reduced	9	1		
1	5	208.155000	ms	total	fannkuchredux_naive	PIR-LLVM	shootout_reduced	9	1		
1	6	208.773000	ms	total	fannkuchredux_naive	PIR-LLVM	shootout_reduced	9	1		
1	7	214.270000	ms	total	fannkuchredux_naive	PIR-LLVM	shootout_reduced	9	1		
1	8	209.257000	ms	total	fannkuchredux_naive	PIR-LLVM	shootout_reduced	9	1		
1	9	207.916000	ms	total	fannkuchredux_naive	PIR-LLVM	shootout_reduced	9	1		
1	10	222.501000	ms	total	fannkuchredux_naive	PIR-LLVM	shootout_reduced	9	1		
1	11	209.934000	ms	total	fannkuchredux_naive	PIR-LLVM	shootout_reduced	9	1		
1	12	212.621000	ms	total	fannkuchredux_naive	PIR-LLVM	shootout_reduced	9	1		
1	13	208.959000	ms	total	fannkuchredux_naive	PIR-LLVM	shootout_reduced	9	1		
1	14	208.862000	ms	total	fannkuchredux_naive	PIR-LLVM	shootout_reduced	9	1		
1	15	213.455000	ms	total	fannkuchredux_naive	PIR-LLVM	shootout_reduced	9	1		
1	1	423.223000	ms	total	mandelbrot_ascii	PIR-LLVM	shootout_reduced	300	1		
1	2	80.754000	ms	total	mandelbrot_ascii	PIR-LLVM	shootout_reduced	300	1		
1	3	1032.480000	ms	total	mandelbrot_ascii	PIR-LLVM	shootout_reduced	300	1		
1	4	64.031000	ms	total	mandelbrot_ascii	PIR-LLVM	shootout_reduced	300	1		
1	5	62.311000	ms	total	mandelbrot_ascii	PIR-LLVM	shootout_reduced	300	1		
1	6	72.535000	ms	total	mandelbrot_ascii	PIR-LLVM	shootout_reduced	300	1		
1	7	68.128000	ms	total	mandelbrot_ascii	PIR-LLVM	shootout_reduced	300	1		
1	8	63.681000	ms	total	mandelbrot_ascii	PIR-LLVM	shootout_reduced	300	1		
1	9	61.885000	ms	total	mandelbrot_ascii	PIR-LLVM	shootout_reduced	300	1		
1	10	61.172000	ms	total	mandelbrot_ascii	PIR-LLVM	shootout_reduced	300	1		
1	11	62.447000	ms	total	mandelbrot_ascii	PIR-LLVM	shootout_reduced	300	1		
1	12	63.870000	ms	total	mandelbrot_ascii	PIR-LLVM	shootout_reduced	300	1		
1	13	62.284000	ms	total	mandelbrot_ascii	PIR-LLVM	shootout_reduced	300	1		
1	14	62.237000	ms	total	mandelbrot_ascii	PIR-LLVM	shootout_reduced	300	1		
1	15	62.273000	ms	total	mandelbrot_ascii	PIR-LLVM	shootout_reduced	300	1		
1	1	147.717000	ms	total	listWhile	PIR-LLVM	simple_extra	500000	1		
1	2	139.880000	ms	total	listWhile	PIR-LLVM	simple_extra	500000	1		
1	3	128.840000	ms	total	listWhile	PIR-LLVM	simple_extra	500000	1		
1	4	67.161000	ms	total	listWhile	PIR-LLVM	simple_extra	500000	1		
1	5	63.455000	ms	total	listWhile	PIR-LLVM	simple_extra	500000	1		
1	6	71.068000	ms	total	listWhile	PIR-LLVM	simple_extra	500000	1		
1	7	85.378000	ms	total	listWhile	PIR-LLVM	simple_extra	500000	1		
1	8	52.013000	ms	total	listWhile	PIR-LLVM	simple_extra	500000	1		
1	9	71.825000	ms	total	listWhile	PIR-LLVM	simple_extra	500000	1		
1	10	62.750000	ms	total	listWhile	PIR-LLVM	simple_extra	500000	1		
1	11	66.363000	ms	total	listWhile	PIR-LLVM	simple_extra	500000	1		
1	12	55.968000	ms	total	listWhile	PIR-LLVM	simple_extra	500000	1		
1	13	78.828000	ms	total	listWhile	PIR-LLVM	simple_extra	500000	1		
1	14	55.757000	ms	total	listWhile	PIR-LLVM	simple_extra	500000	1		
1	15	66.777000	ms	total	listWhile	PIR-LLVM	simple_extra	500000	1		
1	1	1545.132000	ms	total	regexdna	PIR-LLVM	shootout_extra	500000	1		
1	2	1516.848000	ms	total	regexdna	PIR-LLVM	shootout_extra	500000	1		
1	3	3847.312000	ms	total	regexdna	PIR-LLVM	shootout_extra	500000	1		
1	4	1435.479000	ms	total	regexdna	PIR-LLVM	shootout_extra	500000	1		
1	5	1438.636000	ms	total	regexdna	PIR-LLVM	shootout_extra	500000	1		
1	6	1446.340000	ms	total	regexdna	PIR-LLVM	shootout_extra	500000	1		
1	7	1432.261000	ms	total	regexdna	PIR-LLVM	shootout_extra	500000	1		
1	8	1440.247000	ms	total	regexdna	PIR-LLVM	shootout_extra	500000	1		
1	9	1435.114000	ms	total	regexdna	PIR-LLVM	shootout_extra	500000	1		
1	10	1458.583000	ms	total	regexdna	PIR-LLVM	shootout_extra	500000	1		
1	11	1431.696000	ms	total	regexdna	PIR-LLVM	shootout_extra	500000	1		
1	12	1436.967000	ms	total	regexdna	PIR-LLVM	shootout_extra	500000	1		
1	13	1431.957000	ms	total	regexdna	PIR-LLVM	shootout_extra	500000	1		
1	14	1460.114000	ms	total	regexdna	PIR-LLVM	shootout_extra	500000	1		
1	15	1429.618000	ms	total	regexdna	PIR-LLVM	shootout_extra	500000	1		
1	1	728.507000	ms	total	convolution_v	PIR-LLVM	real_thing_reduced	100000	1		
1	2	95.783000	ms	total	convolution_v	PIR-LLVM	real_thing_reduced	100000	1		
1	3	482.174000	ms	total	convolution_v	PIR-LLVM	real_thing_reduced	100000	1		
1	4	92.513000	ms	total	convolution_v	PIR-LLVM	real_thing_reduced	100000	1		
1	5	103.154000	ms	total	convolution_v	PIR-LLVM	real_thing_reduced	100000	1		
1	6	91.418000	ms	total	convolution_v	PIR-LLVM	real_thing_reduced	100000	1		
1	7	92.352000	ms	total	convolution_v	PIR-LLVM	real_thing_reduced	100000	1		
1	8	92.796000	ms	total	convolution_v	PIR-LLVM	real_thing_reduced	100000	1		
1	9	92.337000	ms	total	convolution_v	PIR-LLVM	real_thing_reduced	100000	1		
1	10	93.465000	ms	total	convolution_v	PIR-LLVM	real_thing_reduced	100000	1		
1	11	92.417000	ms	total	convolution_v	PIR-LLVM	real_thing_reduced	100000	1		
1	12	91.388000	ms	total	convolution_v	PIR-LLVM	real_thing_reduced	100000	1		
1	13	92.311000	ms	total	convolution_v	PIR-LLVM	real_thing_reduced	100000	1		
1	14	91.423000	ms	total	convolution_v	PIR-LLVM	real_thing_reduced	100000	1		
1	15	92.273000	ms	total	convolution_v	PIR-LLVM	real_thing_reduced	100000	1		
1	1	1473.988000	ms	total	Bounce_nonames	PIR-LLVM	are-we-fast-r	35	1		
1	2	138.742000	ms	total	Bounce_nonames	PIR-LLVM	are-we-fast-r	35	1		
1	3	137.949000	ms	total	Bounce_nonames	PIR-LLVM	are-we-fast-r	35	1		
1	4	147.902000	ms	total	Bounce_nonames	PIR-LLVM	are-we-fast-r	35	1		
1	5	138.063000	ms	total	Bounce_nonames	PIR-LLVM	are-we-fast-r	35	1		
1	6	137.713000	ms	total	Bounce_nonames	PIR-LLVM	are-we-fast-r	35	1		
1	7	141.149000	ms	total	Bounce_nonames	PIR-LLVM	are-we-fast-r	35	1		
1	8	137.362000	ms	total	Bounce_nonames	PIR-LLVM	are-we-fast-r	35	1		
1	9	137.818000	ms	total	Bounce_nonames	PIR-LLVM	are-we-fast-r	35	1		
1	10	137.917000	ms	total	Bounce_nonames	PIR-LLVM	are-we-fast-r	35	1		
1	11	137.548000	ms	total	Bounce_nonames	PIR-LLVM	are-we-fast-r	35	1		
1	12	138.513000	ms	total	Bounce_nonames	PIR-LLVM	are-we-fast-r	35	1		
1	13	140.496000	ms	total	Bounce_nonames	PIR-LLVM	are-we-fast-r	35	1		
1	14	137.921000	ms	total	Bounce_nonames	PIR-LLVM	are-we-fast-r	35	1		
1	15	137.244000	ms	total	Bounce_nonames	PIR-LLVM	are-we-fast-r	35	1		
1	1	2266.009000	ms	total	Bounce	PIR-LLVM	are-we-fast-r	35	1		
1	2	827.657000	ms	total	Bounce	PIR-LLVM	are-we-fast-r	35	1		
1	3	846.050000	ms	total	Bounce	PIR-LLVM	are-we-fast-r	35	1		
1	4	830.181000	ms	total	Bounce	PIR-LLVM	are-we-fast-r	35	1		
1	5	808.189000	ms	total	Bounce	PIR-LLVM	are-we-fast-r	35	1		
1	6	828.726000	ms	total	Bounce	PIR-LLVM	are-we-fast-r	35	1		
1	7	837.640000	ms	total	Bounce	PIR-LLVM	are-we-fast-r	35	1		
1	8	801.205000	ms	total	Bounce	PIR-LLVM	are-we-fast-r	35	1		
1	9	819.713000	ms	total	Bounce	PIR-LLVM	are-we-fast-r	35	1		
1	10	837.599000	ms	total	Bounce	PIR-LLVM	are-we-fast-r	35	1		
1	11	805.910000	ms	total	Bounce	PIR-LLVM	are-we-fast-r	35	1		
1	12	814.282000	ms	total	Bounce	PIR-LLVM	are-we-fast-r	35	1		
1	13	834.760000	ms	total	Bounce	PIR-LLVM	are-we-fast-r	35	1		
1	14	827.080000	ms	total	Bounce	PIR-LLVM	are-we-fast-r	35	1		
1	15	807.089000	ms	total	Bounce	PIR-LLVM	are-we-fast-r	35	1		
1	1	811.415000	ms	total	fasta_naive	PIR-LLVM	shootout_reduced	80000	1		
1	2	854.726000	ms	total	fasta_naive	PIR-LLVM	shootout_reduced	80000	1		
1	3	2040.841000	ms	total	fasta_naive	PIR-LLVM	shootout_reduced	80000	1		
1	4	432.045000	ms	total	fasta_naive	PIR-LLVM	shootout_reduced	80000	1		
1	5	447.947000	ms	total	fasta_naive	PIR-LLVM	shootout_reduced	80000	1		
1	6	404.147000	ms	total	fasta_naive	PIR-LLVM	shootout_reduced	80000	1		
1	7	413.592000	ms	total	fasta_naive	PIR-LLVM	shootout_reduced	80000	1		
1	8	419.145000	ms	total	fasta_naive	PIR-LLVM	shootout_reduced	80000	1		
1	9	429.433000	ms	total	fasta_naive	PIR-LLVM	shootout_reduced	80000	1		
1	10	431.624000	ms	total	fasta_naive	PIR-LLVM	shootout_reduced	80000	1		
1	11	426.919000	ms	total	fasta_naive	PIR-LLVM	shootout_reduced	80000	1		
1	12	406.963000	ms	total	fasta_naive	PIR-LLVM	shootout_reduced	80000	1		
1	13	420.402000	ms	total	fasta_naive	PIR-LLVM	shootout_reduced	80000	1		
1	14	426.401000	ms	total	fasta_naive	PIR-LLVM	shootout_reduced	80000	1		
1	15	429.782000	ms	total	fasta_naive	PIR-LLVM	shootout_reduced	80000	1		
1	1	2909.954000	ms	total	knucleotide	PIR-LLVM	shootout_reduced	2000	1		
1	2	2168.976000	ms	total	knucleotide	PIR-LLVM	shootout_reduced	2000	1		
1	3	10164.204000	ms	total	knucleotide	PIR-LLVM	shootout_reduced	2000	1		
1	4	502.635000	ms	total	knucleotide	PIR-LLVM	shootout_reduced	2000	1		
1	5	519.288000	ms	total	knucleotide	PIR-LLVM	shootout_reduced	2000	1		
1	6	537.963000	ms	total	knucleotide	PIR-LLVM	shootout_reduced	2000	1		
1	7	491.245000	ms	total	knucleotide	PIR-LLVM	shootout_reduced	2000	1		
1	8	434.767000	ms	total	knucleotide	PIR-LLVM	shootout_reduced	2000	1		
1	9	461.799000	ms	total	knucleotide	PIR-LLVM	shootout_reduced	2000	1		
1	10	487.569000	ms	total	knucleotide	PIR-LLVM	shootout_reduced	2000	1		
1	11	518.696000	ms	total	knucleotide	PIR-LLVM	shootout_reduced	2000	1		
1	12	534.515000	ms	total	knucleotide	PIR-LLVM	shootout_reduced	2000	1		
1	13	494.959000	ms	total	knucleotide	PIR-LLVM	shootout_reduced	2000	1		
1	14	434.820000	ms	total	knucleotide	PIR-LLVM	shootout_reduced	2000	1		
1	15	464.410000	ms	total	knucleotide	PIR-LLVM	shootout_reduced	2000	1		
1	1	3531.416000	ms	total	spectralnorm_math	PIR-LLVM	shootout_reduced	1200	1		
1	2	3330.383000	ms	total	spectralnorm_math	PIR-LLVM	shootout_reduced	1200	1		
1	3	3777.841000	ms	total	spectralnorm_math	PIR-LLVM	shootout_reduced	1200	1		
1	4	3141.990000	ms	total	spectralnorm_math	PIR-LLVM	shootout_reduced	1200	1		
1	5	3124.380000	ms	total	spectralnorm_math	PIR-LLVM	shootout_reduced	1200	1		
1	6	3118.498000	ms	total	spectralnorm_math	PIR-LLVM	shootout_reduced	1200	1		
1	7	3146.278000	ms	total	spectralnorm_math	PIR-LLVM	shootout_reduced	1200	1		
1	8	3175.171000	ms	total	spectralnorm_math	PIR-LLVM	shootout_reduced	1200	1		
1	9	3130.225000	ms	total	spectralnorm_math	PIR-LLVM	shootout_reduced	1200	1		
1	10	3116.158000	ms	total	spectralnorm_math	PIR-LLVM	shootout_reduced	1200	1		
1	11	3136.891000	ms	total	spectralnorm_math	PIR-LLVM	shootout_reduced	1200	1		
1	12	3075.726000	ms	total	spectralnorm_math	PIR-LLVM	shootout_reduced	1200	1		
1	13	3134.826000	ms	total	spectralnorm_math	PIR-LLVM	shootout_reduced	1200	1		
1	14	3151.977000	ms	total	spectralnorm_math	PIR-LLVM	shootout_reduced	1200	1		
1	15	3149.878000	ms	total	spectralnorm_math	PIR-LLVM	shootout_reduced	1200	1		
1	1	4293.791000	ms	total	scalarFor	PIR-LLVM	simple_reduced	100000000	1		
1	2	4286.710000	ms	total	scalarFor	PIR-LLVM	simple_reduced	100000000	1		
1	3	17.014000	ms	total	scalarFor	PIR-LLVM	simple_reduced	100000000	1		
1	4	0.029000	ms	total	scalarFor	PIR-LLVM	simple_reduced	100000000	1		
1	5	0.011000	ms	total	scalarFor	PIR-LLVM	simple_reduced	100000000	1		
1	6	0.008000	ms	total	scalarFor	PIR-LLVM	simple_reduced	100000000	1		
1	7	0.008000	ms	total	scalarFor	PIR-LLVM	simple_reduced	100000000	1		
1	8	0.007000	ms	total	scalarFor	PIR-LLVM	simple_reduced	100000000	1		
1	9	0.008000	ms	total	scalarFor	PIR-LLVM	simple_reduced	100000000	1		
1	10	0.008000	ms	total	scalarFor	PIR-LLVM	simple_reduced	100000000	1		
1	11	0.007000	ms	total	scalarFor	PIR-LLVM	simple_reduced	100000000	1		
1	12	0.007000	ms	total	scalarFor	PIR-LLVM	simple_reduced	100000000	1		
1	13	0.007000	ms	total	scalarFor	PIR-LLVM	simple_reduced	100000000	1		
1	14	0.007000	ms	total	scalarFor	PIR-LLVM	simple_reduced	100000000	1		
1	15	0.007000	ms	total	scalarFor	PIR-LLVM	simple_reduced	100000000	1		
1	1	698.718000	ms	total	fastaredux_naive	PIR-LLVM	shootout_reduced	80000	1		
1	2	1376.458000	ms	total	fastaredux_naive	PIR-LLVM	shootout_reduced	80000	1		
1	3	2551.382000	ms	total	fastaredux_naive	PIR-LLVM	shootout_reduced	80000	1		
1	4	440.450000	ms	total	fastaredux_naive	PIR-LLVM	shootout_reduced	80000	1		
1	5	446.991000	ms	total	fastaredux_naive	PIR-LLVM	shootout_reduced	80000	1		
1	6	440.373000	ms	total	fastaredux_naive	PIR-LLVM	shootout_reduced	80000	1		
1	7	419.283000	ms	total	fastaredux_naive	PIR-LLVM	shootout_reduced	80000	1		
1	8	425.880000	ms	total	fastaredux_naive	PIR-LLVM	shootout_reduced	80000	1		
1	9	435.620000	ms	total	fastaredux_naive	PIR-LLVM	shootout_reduced	80000	1		
1	10	458.018000	ms	total	fastaredux_naive	PIR-LLVM	shootout_reduced	80000	1		
1	11	448.158000	ms	total	fastaredux_naive	PIR-LLVM	shootout_reduced	80000	1		
1	12	421.948000	ms	total	fastaredux_naive	PIR-LLVM	shootout_reduced	80000	1		
1	13	428.429000	ms	total	fastaredux_naive	PIR-LLVM	shootout_reduced	80000	1		
1	14	431.836000	ms	total	fastaredux_naive	PIR-LLVM	shootout_reduced	80000	1		
1	15	439.451000	ms	total	fastaredux_naive	PIR-LLVM	shootout_reduced	80000	1		
1	1	255.201000	ms	total	mandelbrot_noout_naive	PIR-LLVM	shootout_reduced	500	1		
1	2	242.047000	ms	total	mandelbrot_noout_naive	PIR-LLVM	shootout_reduced	500	1		
1	3	1274.712000	ms	total	mandelbrot_noout_naive	PIR-LLVM	shootout_reduced	500	1		
1	4	218.343000	ms	total	mandelbrot_noout_naive	PIR-LLVM	shootout_reduced	500	1		
1	5	218.163000	ms	total	mandelbrot_noout_naive	PIR-LLVM	shootout_reduced	500	1		
1	6	218.249000	ms	total	mandelbrot_noout_naive	PIR-LLVM	shootout_reduced	500	1		
1	7	228.209000	ms	total	mandelbrot_noout_naive	PIR-LLVM	shootout_reduced	500	1		
1	8	219.246000	ms	total	mandelbrot_noout_naive	PIR-LLVM	shootout_reduced	500	1		
1	9	228.283000	ms	total	mandelbrot_noout_naive	PIR-LLVM	shootout_reduced	500	1		
1	10	226.415000	ms	total	mandelbrot_noout_naive	PIR-LLVM	shootout_reduced	500	1		
1	11	236.273000	ms	total	mandelbrot_noout_naive	PIR-LLVM	shootout_reduced	500	1		
1	12	221.913000	ms	total	mandelbrot_noout_naive	PIR-LLVM	shootout_reduced	500	1		
1	13	225.062000	ms	total	mandelbrot_noout_naive	PIR-LLVM	shootout_reduced	500	1		
1	14	226.951000	ms	total	mandelbrot_noout_naive	PIR-LLVM	shootout_reduced	500	1		
1	15	237.864000	ms	total	mandelbrot_noout_naive	PIR-LLVM	shootout_reduced	500	1		
1	1	4506.216000	ms	total	knucleotide_brute	PIR-LLVM	shootout_reduced	2000	1		
1	2	5262.250000	ms	total	knucleotide_brute	PIR-LLVM	shootout_reduced	2000	1		
1	3	15280.540000	ms	total	knucleotide_brute	PIR-LLVM	shootout_reduced	2000	1		
1	4	3738.006000	ms	total	knucleotide_brute	PIR-LLVM	shootout_reduced	2000	1		
1	5	3859.890000	ms	total	knucleotide_brute	PIR-LLVM	shootout_reduced	2000	1		
1	6	3931.266000	ms	total	knucleotide_brute	PIR-LLVM	shootout_reduced	2000	1		
1	7	4021.802000	ms	total	knucleotide_brute	PIR-LLVM	shootout_reduced	2000	1		
1	8	4048.654000	ms	total	knucleotide_brute	PIR-LLVM	shootout_reduced	2000	1		
1	9	4021.308000	ms	total	knucleotide_brute	PIR-LLVM	shootout_reduced	2000	1		
1	10	4079.860000	ms	total	knucleotide_brute	PIR-LLVM	shootout_reduced	2000	1		
1	11	3436.278000	ms	total	knucleotide_brute	PIR-LLVM	shootout_reduced	2000	1		
1	12	3429.247000	ms	total	knucleotide_brute	PIR-LLVM	shootout_reduced	2000	1		
1	13	3663.938000	ms	total	knucleotide_brute	PIR-LLVM	shootout_reduced	2000	1		
1	14	3738.104000	ms	total	knucleotide_brute	PIR-LLVM	shootout_reduced	2000	1		
1	15	3896.735000	ms	total	knucleotide_brute	PIR-LLVM	shootout_reduced	2000	1		
1	1	635.363000	ms	total	lapply	PIR-LLVM	simple_reduced	1000000	1		
1	2	732.458000	ms	total	lapply	PIR-LLVM	simple_reduced	1000000	1		
1	3	771.687000	ms	total	lapply	PIR-LLVM	simple_reduced	1000000	1		
1	4	742.223000	ms	total	lapply	PIR-LLVM	simple_reduced	1000000	1		
1	5	786.617000	ms	total	lapply	PIR-LLVM	simple_reduced	1000000	1		
1	6	741.755000	ms	total	lapply	PIR-LLVM	simple_reduced	1000000	1		
1	7	752.932000	ms	total	lapply	PIR-LLVM	simple_reduced	1000000	1		
1	8	750.659000	ms	total	lapply	PIR-LLVM	simple_reduced	1000000	1		
1	9	555.137000	ms	total	lapply	PIR-LLVM	simple_reduced	1000000	1		
1	10	660.555000	ms	total	lapply	PIR-LLVM	simple_reduced	1000000	1		
1	11	670.975000	ms	total	lapply	PIR-LLVM	simple_reduced	1000000	1		
1	12	695.453000	ms	total	lapply	PIR-LLVM	simple_reduced	1000000	1		
1	13	640.450000	ms	total	lapply	PIR-LLVM	simple_reduced	1000000	1		
1	14	566.456000	ms	total	lapply	PIR-LLVM	simple_reduced	1000000	1		
1	15	668.561000	ms	total	lapply	PIR-LLVM	simple_reduced	1000000	1		
1	1	1162.744000	ms	total	spectralnorm_alt_3	PIR-LLVM	shootout_reduced	250	1		
1	2	884.016000	ms	total	spectralnorm_alt_3	PIR-LLVM	shootout_reduced	250	1		
1	3	1550.382000	ms	total	spectralnorm_alt_3	PIR-LLVM	shootout_reduced	250	1		
1	4	99.076000	ms	total	spectralnorm_alt_3	PIR-LLVM	shootout_reduced	250	1		
1	5	100.146000	ms	total	spectralnorm_alt_3	PIR-LLVM	shootout_reduced	250	1		
1	6	99.740000	ms	total	spectralnorm_alt_3	PIR-LLVM	shootout_reduced	250	1		
1	7	100.413000	ms	total	spectralnorm_alt_3	PIR-LLVM	shootout_reduced	250	1		
1	8	100.741000	ms	total	spectralnorm_alt_3	PIR-LLVM	shootout_reduced	250	1		
1	9	99.221000	ms	total	spectralnorm_alt_3	PIR-LLVM	shootout_reduced	250	1		
1	10	100.431000	ms	total	spectralnorm_alt_3	PIR-LLVM	shootout_reduced	250	1		
1	11	100.510000	ms	total	spectralnorm_alt_3	PIR-LLVM	shootout_reduced	250	1		
1	12	99.071000	ms	total	spectralnorm_alt_3	PIR-LLVM	shootout_reduced	250	1		
1	13	100.232000	ms	total	spectralnorm_alt_3	PIR-LLVM	shootout_reduced	250	1		
1	14	102.576000	ms	total	spectralnorm_alt_3	PIR-LLVM	shootout_reduced	250	1		
1	15	99.663000	ms	total	spectralnorm_alt_3	PIR-LLVM	shootout_reduced	250	1		
1	1	422.416000	ms	total	mandelbrot_noout	PIR-LLVM	shootout_reduced	400	1		
1	2	68.262000	ms	total	mandelbrot_noout	PIR-LLVM	shootout_reduced	400	1		
1	3	779.005000	ms	total	mandelbrot_noout	PIR-LLVM	shootout_reduced	400	1		
1	4	64.178000	ms	total	mandelbrot_noout	PIR-LLVM	shootout_reduced	400	1		
1	5	65.140000	ms	total	mandelbrot_noout	PIR-LLVM	shootout_reduced	400	1		
1	6	63.934000	ms	total	mandelbrot_noout	PIR-LLVM	shootout_reduced	400	1		
1	7	63.875000	ms	total	mandelbrot_noout	PIR-LLVM	shootout_reduced	400	1		
1	8	63.921000	ms	total	mandelbrot_noout	PIR-LLVM	shootout_reduced	400	1		
1	9	64.965000	ms	total	mandelbrot_noout	PIR-LLVM	shootout_reduced	400	1		
1	10	73.811000	ms	total	mandelbrot_noout	PIR-LLVM	shootout_reduced	400	1		
1	11	63.907000	ms	total	mandelbrot_noout	PIR-LLVM	shootout_reduced	400	1		
1	12	63.938000	ms	total	mandelbrot_noout	PIR-LLVM	shootout_reduced	400	1		
1	13	63.983000	ms	total	mandelbrot_noout	PIR-LLVM	shootout_reduced	400	1		
1	14	64.858000	ms	total	mandelbrot_noout	PIR-LLVM	shootout_reduced	400	1		
1	15	63.716000	ms	total	mandelbrot_noout	PIR-LLVM	shootout_reduced	400	1		
1	1	954.023000	ms	total	vectorFor	PIR-LLVM	simple_reduced	15000000	1		
1	2	931.468000	ms	total	vectorFor	PIR-LLVM	simple_reduced	15000000	1		
1	3	73.699000	ms	total	vectorFor	PIR-LLVM	simple_reduced	15000000	1		
1	4	32.807000	ms	total	vectorFor	PIR-LLVM	simple_reduced	15000000	1		
1	5	32.726000	ms	total	vectorFor	PIR-LLVM	simple_reduced	15000000	1		
1	6	32.705000	ms	total	vectorFor	PIR-LLVM	simple_reduced	15000000	1		
1	7	32.700000	ms	total	vectorFor	PIR-LLVM	simple_reduced	15000000	1		
1	8	32.742000	ms	total	vectorFor	PIR-LLVM	simple_reduced	15000000	1		
1	9	32.741000	ms	total	vectorFor	PIR-LLVM	simple_reduced	15000000	1		
1	10	32.739000	ms	total	vectorFor	PIR-LLVM	simple_reduced	15000000	1		
1	11	32.702000	ms	total	vectorFor	PIR-LLVM	simple_reduced	15000000	1		
1	12	32.719000	ms	total	vectorFor	PIR-LLVM	simple_reduced	15000000	1		
1	13	32.721000	ms	total	vectorFor	PIR-LLVM	simple_reduced	15000000	1		
1	14	32.730000	ms	total	vectorFor	PIR-LLVM	simple_reduced	15000000	1		
1	15	32.739000	ms	total	vectorFor	PIR-LLVM	simple_reduced	15000000	1		
1	1	1224.878000	ms	total	fasta_3	PIR-LLVM	shootout_reduced	60000	1		
1	2	3680.595000	ms	total	fasta_3	PIR-LLVM	shootout_reduced	60000	1		
1	3	4464.697000	ms	total	fasta_3	PIR-LLVM	shootout_reduced	60000	1		
1	4	905.102000	ms	total	fasta_3	PIR-LLVM	shootout_reduced	60000	1		
1	5	887.486000	ms	total	fasta_3	PIR-LLVM	shootout_reduced	60000	1		
1	6	892.512000	ms	total	fasta_3	PIR-LLVM	shootout_reduced	60000	1		
1	7	894.480000	ms	total	fasta_3	PIR-LLVM	shootout_reduced	60000	1		
1	8	916.510000	ms	total	fasta_3	PIR-LLVM	shootout_reduced	60000	1		
1	9	902.522000	ms	total	fasta_3	PIR-LLVM	shootout_reduced	60000	1		
1	10	892.272000	ms	total	fasta_3	PIR-LLVM	shootout_reduced	60000	1		
1	11	897.010000	ms	total	fasta_3	PIR-LLVM	shootout_reduced	60000	1		
1	12	899.917000	ms	total	fasta_3	PIR-LLVM	shootout_reduced	60000	1		
1	13	899.440000	ms	total	fasta_3	PIR-LLVM	shootout_reduced	60000	1		
1	14	889.120000	ms	total	fasta_3	PIR-LLVM	shootout_reduced	60000	1		
1	15	893.915000	ms	total	fasta_3	PIR-LLVM	shootout_reduced	60000	1		
1	1	3392.967000	ms	total	bytecodes	PIR-LLVM	simple_reduced	9000000	1		
1	2	3501.503000	ms	total	bytecodes	PIR-LLVM	simple_reduced	9000000	1		
1	3	233.167000	ms	total	bytecodes	PIR-LLVM	simple_reduced	9000000	1		
1	4	9.111000	ms	total	bytecodes	PIR-LLVM	simple_reduced	9000000	1		
1	5	9.092000	ms	total	bytecodes	PIR-LLVM	simple_reduced	9000000	1		
1	6	9.091000	ms	total	bytecodes	PIR-LLVM	simple_reduced	9000000	1		
1	7	9.089000	ms	total	bytecodes	PIR-LLVM	simple_reduced	9000000	1		
1	8	9.097000	ms	total	bytecodes	PIR-LLVM	simple_reduced	9000000	1		
1	9	9.091000	ms	total	bytecodes	PIR-LLVM	simple_reduced	9000000	1		
1	10	9.088000	ms	total	bytecodes	PIR-LLVM	simple_reduced	9000000	1		
1	11	9.088000	ms	total	bytecodes	PIR-LLVM	simple_reduced	9000000	1		
1	12	9.088000	ms	total	bytecodes	PIR-LLVM	simple_reduced	9000000	1		
1	13	9.089000	ms	total	bytecodes	PIR-LLVM	simple_reduced	9000000	1		
1	14	9.088000	ms	total	bytecodes	PIR-LLVM	simple_reduced	9000000	1		
1	15	9.088000	ms	total	bytecodes	PIR-LLVM	simple_reduced	9000000	1		
1	1	1922.140000	ms	total	emptyWhile	PIR-LLVM	simple_reduced	30000000	1		
1	2	1922.323000	ms	total	emptyWhile	PIR-LLVM	simple_reduced	30000000	1		
1	3	46.815000	ms	total	emptyWhile	PIR-LLVM	simple_reduced	30000000	1		
1	4	30.294000	ms	total	emptyWhile	PIR-LLVM	simple_reduced	30000000	1		
1	5	30.278000	ms	total	emptyWhile	PIR-LLVM	simple_reduced	30000000	1		
1	6	30.284000	ms	total	emptyWhile	PIR-LLVM	simple_reduced	30000000	1		
1	7	30.275000	ms	total	emptyWhile	PIR-LLVM	simple_reduced	30000000	1		
1	8	30.273000	ms	total	emptyWhile	PIR-LLVM	simple_reduced	30000000	1		
1	9	30.277000	ms	total	emptyWhile	PIR-LLVM	simple_reduced	30000000	1		
1	10	30.277000	ms	total	emptyWhile	PIR-LLVM	simple_reduced	30000000	1		
1	11	30.272000	ms	total	emptyWhile	PIR-LLVM	simple_reduced	30000000	1		
1	12	30.274000	ms	total	emptyWhile	PIR-LLVM	simple_reduced	30000000	1		
1	13	30.273000	ms	total	emptyWhile	PIR-LLVM	simple_reduced	30000000	1		
1	14	30.274000	ms	total	emptyWhile	PIR-LLVM	simple_reduced	30000000	1		
1	15	30.275000	ms	total	emptyWhile	PIR-LLVM	simple_reduced	30000000	1		
1	1	873.321000	ms	total	binarytrees_naive	PIR-LLVM	shootout_reduced	9	1		
1	2	135.162000	ms	total	binarytrees_naive	PIR-LLVM	shootout_reduced	9	1		
1	3	3965.921000	ms	total	binarytrees_naive	PIR-LLVM	shootout_reduced	9	1		
1	4	88.009000	ms	total	binarytrees_naive	PIR-LLVM	shootout_reduced	9	1		
1	5	98.535000	ms	total	binarytrees_naive	PIR-LLVM	shootout_reduced	9	1		
1	6	88.375000	ms	total	binarytrees_naive	PIR-LLVM	shootout_reduced	9	1		
1	7	87.919000	ms	total	binarytrees_naive	PIR-LLVM	shootout_reduced	9	1		
1	8	88.183000	ms	total	binarytrees_naive	PIR-LLVM	shootout_reduced	9	1		
1	9	90.998000	ms	total	binarytrees_naive	PIR-LLVM	shootout_reduced	9	1		
1	10	87.347000	ms	total	binarytrees_naive	PIR-LLVM	shootout_reduced	9	1		
1	11	88.012000	ms	total	binarytrees_naive	PIR-LLVM	shootout_reduced	9	1		
1	12	87.590000	ms	total	binarytrees_naive	PIR-LLVM	shootout_reduced	9	1		
1	13	88.471000	ms	total	binarytrees_naive	PIR-LLVM	shootout_reduced	9	1		
1	14	88.271000	ms	total	binarytrees_naive	PIR-LLVM	shootout_reduced	9	1		
1	15	88.358000	ms	total	binarytrees_naive	PIR-LLVM	shootout_reduced	9	1		
1	1	391.921000	ms	total	spectralnorm_alt	PIR-LLVM	shootout_reduced	1500	1		
1	2	268.523000	ms	total	spectralnorm_alt	PIR-LLVM	shootout_reduced	1500	1		
1	3	1546.581000	ms	total	spectralnorm_alt	PIR-LLVM	shootout_reduced	1500	1		
1	4	210.439000	ms	total	spectralnorm_alt	PIR-LLVM	shootout_reduced	1500	1		
1	5	198.462000	ms	total	spectralnorm_alt	PIR-LLVM	shootout_reduced	1500	1		
1	6	214.230000	ms	total	spectralnorm_alt	PIR-LLVM	shootout_reduced	1500	1		
1	7	202.888000	ms	total	spectralnorm_alt	PIR-LLVM	shootout_reduced	1500	1		
1	8	187.603000	ms	total	spectralnorm_alt	PIR-LLVM	shootout_reduced	1500	1		
1	9	188.546000	ms	total	spectralnorm_alt	PIR-LLVM	shootout_reduced	1500	1		
1	10	198.669000	ms	total	spectralnorm_alt	PIR-LLVM	shootout_reduced	1500	1		
1	11	186.045000	ms	total	spectralnorm_alt	PIR-LLVM	shootout_reduced	1500	1		
1	12	195.365000	ms	total	spectralnorm_alt	PIR-LLVM	shootout_reduced	1500	1		
1	13	193.253000	ms	total	spectralnorm_alt	PIR-LLVM	shootout_reduced	1500	1		
1	14	202.980000	ms	total	spectralnorm_alt	PIR-LLVM	shootout_reduced	1500	1		
1	15	187.693000	ms	total	spectralnorm_alt	PIR-LLVM	shootout_reduced	1500	1		
1	1	1581.368000	ms	total	nbody_2	PIR-LLVM	shootout_reduced	12000	1		
1	2	1274.941000	ms	total	nbody_2	PIR-LLVM	shootout_reduced	12000	1		
1	3	1790.093000	ms	total	nbody_2	PIR-LLVM	shootout_reduced	12000	1		
1	4	653.984000	ms	total	nbody_2	PIR-LLVM	shootout_reduced	12000	1		
1	5	633.709000	ms	total	nbody_2	PIR-LLVM	shootout_reduced	12000	1		
1	6	630.578000	ms	total	nbody_2	PIR-LLVM	shootout_reduced	12000	1		
1	7	632.667000	ms	total	nbody_2	PIR-LLVM	shootout_reduced	12000	1		
1	8	642.837000	ms	total	nbody_2	PIR-LLVM	shootout_reduced	12000	1		
1	9	632.251000	ms	total	nbody_2	PIR-LLVM	shootout_reduced	12000	1		
1	10	632.602000	ms	total	nbody_2	PIR-LLVM	shootout_reduced	12000	1		
1	11	628.708000	ms	total	nbody_2	PIR-LLVM	shootout_reduced	12000	1		
1	12	642.813000	ms	total	nbody_2	PIR-LLVM	shootout_reduced	12000	1		
1	13	634.021000	ms	total	nbody_2	PIR-LLVM	shootout_reduced	12000	1		
1	14	632.545000	ms	total	nbody_2	PIR-LLVM	shootout_reduced	12000	1		
1	15	642.425000	ms	total	nbody_2	PIR-LLVM	shootout_reduced	12000	1		
1	1	727.791000	ms	total	convolution_slow	PIR-LLVM	real_thing_reduced	100000	1		
1	2	96.284000	ms	total	convolution_slow	PIR-LLVM	real_thing_reduced	100000	1		
1	3	482.797000	ms	total	convolution_slow	PIR-LLVM	real_thing_reduced	100000	1		
1	4	93.016000	ms	total	convolution_slow	PIR-LLVM	real_thing_reduced	100000	1		
1	5	103.585000	ms	total	convolution_slow	PIR-LLVM	real_thing_reduced	100000	1		
1	6	94.518000	ms	total	convolution_slow	PIR-LLVM	real_thing_reduced	100000	1		
1	7	92.647000	ms	total	convolution_slow	PIR-LLVM	real_thing_reduced	100000	1		
1	8	92.999000	ms	total	convolution_slow	PIR-LLVM	real_thing_reduced	100000	1		
1	9	92.985000	ms	total	convolution_slow	PIR-LLVM	real_thing_reduced	100000	1		
1	10	94.601000	ms	total	convolution_slow	PIR-LLVM	real_thing_reduced	100000	1		
1	11	94.338000	ms	total	convolution_slow	PIR-LLVM	real_thing_reduced	100000	1		
1	12	91.905000	ms	total	convolution_slow	PIR-LLVM	real_thing_reduced	100000	1		
1	13	92.684000	ms	total	convolution_slow	PIR-LLVM	real_thing_reduced	100000	1		
1	14	91.808000	ms	total	convolution_slow	PIR-LLVM	real_thing_reduced	100000	1		
1	15	92.595000	ms	total	convolution_slow	PIR-LLVM	real_thing_reduced	100000	1		
1	1	193.851000	ms	total	listFor	PIR-LLVM	simple_extra	500000	1		
1	2	197.187000	ms	total	listFor	PIR-LLVM	simple_extra	500000	1		
1	3	86.113000	ms	total	listFor	PIR-LLVM	simple_extra	500000	1		
1	4	66.553000	ms	total	listFor	PIR-LLVM	simple_extra	500000	1		
1	5	76.716000	ms	total	listFor	PIR-LLVM	simple_extra	500000	1		
1	6	57.352000	ms	total	listFor	PIR-LLVM	simple_extra	500000	1		
1	7	66.730000	ms	total	listFor	PIR-LLVM	simple_extra	500000	1		
1	8	54.931000	ms	total	listFor	PIR-LLVM	simple_extra	500000	1		
1	9	67.549000	ms	total	listFor	PIR-LLVM	simple_extra	500000	1		
1	10	81.152000	ms	total	listFor	PIR-LLVM	simple_extra	500000	1		
1	11	58.939000	ms	total	listFor	PIR-LLVM	simple_extra	500000	1		
1	12	60.634000	ms	total	listFor	PIR-LLVM	simple_extra	500000	1		
1	13	68.453000	ms	total	listFor	PIR-LLVM	simple_extra	500000	1		
1	14	74.509000	ms	total	listFor	PIR-LLVM	simple_extra	500000	1		
1	15	49.624000	ms	total	listFor	PIR-LLVM	simple_extra	500000	1		
